verification/tb.vcd
$date
	Thu Dec  5 21:33:13 2024
$end
$version
	Icarus Verilog
$end
$timescale
	1ps
$end
$scope module tb $end
$var wire 32 ! o_pc_debug [31:0] $end
$var wire 32 " o_io_ledr [31:0] $end
$var wire 32 # o_io_ledg [31:0] $end
$var wire 32 $ o_io_lcd [31:0] $end
$var wire 7 % o_io_hex7 [6:0] $end
$var wire 7 & o_io_hex6 [6:0] $end
$var wire 7 ' o_io_hex5 [6:0] $end
$var wire 7 ( o_io_hex4 [6:0] $end
$var wire 7 ) o_io_hex3 [6:0] $end
$var wire 7 * o_io_hex2 [6:0] $end
$var wire 7 + o_io_hex1 [6:0] $end
$var wire 7 , o_io_hex0 [6:0] $end
$var wire 1 - o_insn_vld $end
$var reg 1 . i_clk $end
$var reg 4 / i_io_btn [3:0] $end
$var reg 32 0 i_io_sw [31:0] $end
$var reg 1 1 i_rst_n $end
$scope module log $end
$var wire 1 . clk_i $end
$var wire 32 2 data [31:0] $end
$var wire 32 3 instr [31:0] $end
$var wire 1 4 is_branch $end
$var wire 1 5 is_jump $end
$var wire 1 6 is_load $end
$var wire 1 7 is_store $end
$var wire 32 8 l_data [31:0] $end
$var wire 3 9 mem_type [2:0] $end
$var wire 32 : pc [31:0] $end
$var wire 32 ; s_data [31:0] $end
$var wire 5 < reg_num [4:0] $end
$var wire 3 = ls_size [2:0] $end
$var wire 12 > ls_addr [11:0] $end
$var integer 32 ? fd [31:0] $end
$upscope $end
$scope module singlecycle_inst $end
$var wire 1 . i_clk $end
$var wire 4 @ i_io_btn [3:0] $end
$var wire 32 A i_io_sw [31:0] $end
$var wire 1 1 i_rst_n $end
$var wire 2 B wb_sel [1:0] $end
$var wire 32 C wb_data [31:0] $end
$var wire 2 D s_length [1:0] $end
$var wire 32 E rs2_data [31:0] $end
$var wire 32 F rs1_data [31:0] $end
$var wire 1 G rd_wren $end
$var wire 1 H pc_sel $end
$var wire 32 I pc_next [31:0] $end
$var wire 32 J pc_four [31:0] $end
$var wire 32 K operand_b [31:0] $end
$var wire 32 L operand_a [31:0] $end
$var wire 1 M opb_sel $end
$var wire 1 N opa_sel $end
$var wire 32 O o_io_ledr [31:0] $end
$var wire 32 P o_io_ledg [31:0] $end
$var wire 32 Q o_io_lcd [31:0] $end
$var wire 7 R o_io_hex7 [6:0] $end
$var wire 7 S o_io_hex6 [6:0] $end
$var wire 7 T o_io_hex5 [6:0] $end
$var wire 7 U o_io_hex4 [6:0] $end
$var wire 7 V o_io_hex3 [6:0] $end
$var wire 7 W o_io_hex2 [6:0] $end
$var wire 7 X o_io_hex1 [6:0] $end
$var wire 7 Y o_io_hex0 [6:0] $end
$var wire 1 Z mem_wren $end
$var wire 32 [ ld_data [31:0] $end
$var wire 1 \ l_unsigned $end
$var wire 3 ] l_length [2:0] $end
$var wire 32 ^ instr [31:0] $end
$var wire 1 _ insn_vld $end
$var wire 32 ` immediate [31:0] $end
$var wire 1 a br_un $end
$var wire 1 b br_less $end
$var wire 1 c br_equal $end
$var wire 4 d alu_op [3:0] $end
$var wire 32 e alu_data [31:0] $end
$var reg 32 f PC_reg [31:0] $end
$var reg 1 - o_insn_vld $end
$var reg 32 g o_pc_debug [31:0] $end
$scope module adder4_inst $end
$var wire 32 h operand_a [31:0] $end
$var wire 32 i operand_b [31:0] $end
$var wire 32 j adder_data [31:0] $end
$upscope $end
$scope module alu_inst $end
$var wire 32 k i_operand_a [31:0] $end
$var wire 32 l i_operand_b [31:0] $end
$var wire 32 m not_b [31:0] $end
$var wire 32 n o_alu_data [31:0] $end
$var wire 1 o overflow $end
$var wire 1 p signed_lt $end
$var wire 1 q unsigned_lt $end
$var wire 32 r temp_srl [31:0] $end
$var wire 32 s temp_sra [31:0] $end
$var wire 32 t temp_sll [31:0] $end
$var wire 32 u temp [31:0] $end
$var wire 4 v i_alu_op [3:0] $end
$var wire 1 w carry $end
$var reg 32 x alu_temp [31:0] $end
$scope module u1 $end
$var wire 32 y i_operand_a [31:0] $end
$var wire 32 z i_operand_b [31:0] $end
$var reg 32 { o_sll_data [31:0] $end
$upscope $end
$scope module u2 $end
$var wire 32 | i_operand_a [31:0] $end
$var wire 32 } i_operand_b [31:0] $end
$var reg 32 ~ o_srl_data [31:0] $end
$upscope $end
$scope module u3 $end
$var wire 32 !" i_operand_a [31:0] $end
$var wire 32 "" i_operand_b [31:0] $end
$var reg 32 #" o_sra_data [31:0] $end
$upscope $end
$upscope $end
$scope module brcomp_inst $end
$var wire 1 c br_equal $end
$var wire 1 b br_less $end
$var wire 32 $" not_b [31:0] $end
$var wire 1 %" overflow $end
$var wire 32 &" sub [31:0] $end
$var wire 32 '" rs2_data [31:0] $end
$var wire 32 (" rs1_data [31:0] $end
$var wire 1 )" carry $end
$var wire 1 a br_unsigned $end
$var reg 1 *" br_equal_reg $end
$var reg 1 +" br_less_reg $end
$upscope $end
$scope module ctrl_unit_inst $end
$var wire 1 c br_equal $end
$var wire 1 b br_less $end
$var wire 32 ," instr [31:0] $end
$var wire 7 -" func7 [6:0] $end
$var wire 3 ." func3 [2:0] $end
$var parameter 7 /" B_type $end
$var parameter 7 0" I_type_IMM $end
$var parameter 7 1" I_type_JALR $end
$var parameter 7 2" I_type_LD $end
$var parameter 7 3" J_type $end
$var parameter 7 4" R_type $end
$var parameter 7 5" S_type $end
$var parameter 7 6" U_type_AUIPC $end
$var parameter 7 7" U_type_LUI $end
$var reg 4 8" alu_op [3:0] $end
$var reg 1 H br_sel $end
$var reg 1 a br_unsigned $end
$var reg 1 _ insn_vld $end
$var reg 3 9" l_length [2:0] $end
$var reg 1 \ l_unsigned $end
$var reg 1 Z mem_wren $end
$var reg 1 N op_a_sel $end
$var reg 1 M op_b_sel $end
$var reg 1 G rd_wren $end
$var reg 2 :" s_length [1:0] $end
$var reg 2 ;" wb_sel [1:0] $end
$upscope $end
$scope module imem_inst $end
$var wire 32 <" i_addr [31:0] $end
$var wire 32 =" o_data [31:0] $end
$upscope $end
$scope module immgen_inst $end
$var wire 32 >" instruction_i [31:0] $end
$var parameter 7 ?" B_type $end
$var parameter 7 @" I_type_IMM $end
$var parameter 7 A" I_type_JALR $end
$var parameter 7 B" I_type_LD $end
$var parameter 7 C" J_type $end
$var parameter 7 D" R_type $end
$var parameter 7 E" S_type $end
$var parameter 7 F" U_type_AUIPC $end
$var parameter 7 G" U_type_LUI $end
$var reg 32 H" immediate_o [31:0] $end
$upscope $end
$scope module lsu_inst $end
$var wire 1 . i_clk $end
$var wire 32 I" i_io_btn [31:0] $end
$var wire 32 J" i_io_sw [31:0] $end
$var wire 3 K" i_l_length [2:0] $end
$var wire 1 \ i_l_unsigned $end
$var wire 32 L" i_lsu_addr [31:0] $end
$var wire 1 Z i_lsu_wren $end
$var wire 1 1 i_rst_n $end
$var wire 2 M" i_s_length [1:0] $end
$var wire 32 N" output_mem_out [31:0] $end
$var wire 6 O" output_mem_addr [5:0] $end
$var wire 32 P" o_io_ledr [31:0] $end
$var wire 32 Q" o_io_ledg [31:0] $end
$var wire 32 R" o_io_lcd [31:0] $end
$var wire 7 S" o_io_hex7 [6:0] $end
$var wire 7 T" o_io_hex6 [6:0] $end
$var wire 7 U" o_io_hex5 [6:0] $end
$var wire 7 V" o_io_hex4 [6:0] $end
$var wire 7 W" o_io_hex3 [6:0] $end
$var wire 7 X" o_io_hex2 [6:0] $end
$var wire 7 Y" o_io_hex1 [6:0] $end
$var wire 7 Z" o_io_hex0 [6:0] $end
$var wire 32 [" input_mem_out [31:0] $end
$var wire 5 \" input_mem_addr [4:0] $end
$var wire 32 ]" i_st_data [31:0] $end
$var wire 32 ^" data_mem_out [31:0] $end
$var wire 13 _" data_mem_addr [12:0] $end
$var reg 3 `" cs [2:0] $end
$var reg 32 a" ld_temp_data [31:0] $end
$var reg 32 b" o_ld_data [31:0] $end
$scope begin $ivl_for_loop0 $end
$var integer 32 c" i [31:0] $end
$upscope $end
$scope begin $ivl_for_loop1 $end
$var integer 32 d" i [31:0] $end
$upscope $end
$scope begin $ivl_for_loop2 $end
$var integer 32 e" i [31:0] $end
$upscope $end
$upscope $end
$scope module regfile_inst $end
$var wire 1 . clk_i $end
$var wire 5 f" rd_addr [4:0] $end
$var wire 32 g" rd_data [31:0] $end
$var wire 1 G rd_wren $end
$var wire 5 h" rs1_addr [4:0] $end
$var wire 32 i" rs1_data [31:0] $end
$var wire 5 j" rs2_addr [4:0] $end
$var wire 32 k" rs2_data [31:0] $end
$var wire 1 1 rst_ni $end
$scope begin $ivl_for_loop3 $end
$var integer 32 l" i [31:0] $end
$upscope $end
$upscope $end
$upscope $end
$upscope $end
$enddefinitions $end
$comment Show the parameter values. $end
$dumpall
b110111 G"
b10111 F"
b100011 E"
b110011 D"
b1101111 C"
b11 B"
b1100111 A"
b10011 @"
b1100011 ?"
b110111 7"
b10111 6"
b100011 5"
b110011 4"
b1101111 3"
b11 2"
b1100111 1"
b10011 0"
b1100011 /"
$end
#0
$dumpvars
bx l"
bx k"
bx j"
bx i"
bx h"
bx g"
bx f"
bx e"
bx d"
bx c"
bx b"
bx a"
bx `"
bx _"
bx ^"
bx ]"
bx \"
bx ["
bx Z"
bx Y"
bx X"
bx W"
bx V"
bx U"
bx T"
bx S"
bx R"
bx Q"
bx P"
bx O"
bx N"
bx M"
bx L"
bx K"
bx J"
b0xxxx I"
bx H"
bx >"
bx ="
bx <"
bx ;"
bx :"
bx 9"
bx 8"
bx ."
bx -"
bx ,"
x+"
x*"
x)"
bx ("
bx '"
bx &"
x%"
bx $"
bx #"
bx ""
bx !"
bx ~
bx }
bx |
bx {
bx z
bx y
bx x
xw
bx v
bx u
bx t
bx s
bx r
xq
xp
xo
bx n
bx m
bx l
bx k
bx j
b100 i
bx h
bx g
bx f
bx e
bx d
xc
xb
xa
bx `
x_
bx ^
bx ]
x\
bx [
xZ
bx Y
bx X
bx W
bx V
bx U
bx T
bx S
bx R
bx Q
bx P
bx O
xN
xM
bx L
bx K
bx J
bx I
xH
xG
bx F
bx E
bx D
bx C
bx B
bx A
bx @
b10000000000000000000000000000011 ?
bx >
bx =
bx <
bx ;
bx :
bx 9
bx 8
x7
x6
x5
x4
bx 3
bx 2
x1
bx 0
bx /
0.
x-
bx ,
bx +
bx *
bx )
bx (
bx '
bx &
bx %
bx $
bx #
bx "
bx !
$end
#5000
1p
b0 ^"
b0 ["
b0 N"
1c
1*"
0b
0+"
1q
0o
04
b0 &"
1)"
0%"
b11111111111111111111111111110001 u
0w
06
b0 9
b0 `"
b1111 _"
b1111 \"
b1111 O"
b1111 >
b1111 2
b1111 C
b1111 g"
b0 s
b0 #"
b1111 e
b1111 n
b1111 x
b1111 L"
b11111111111111111111111111111111 $"
b0 L
b0 k
b0 y
b0 |
b0 !"
07
b0 =
05
b11111111111111111111111111110000 m
b0 r
b0 ~
b0 t
b0 {
1_
b0 d
b0 v
b0 8"
b0 ;
b0 E
b0 '"
b0 ]"
b0 k"
b0 F
b0 ("
b0 i"
b100 I
b1111 K
b1111 l
b1111 z
b1111 }
b1111 ""
b0 ."
b0 -"
b1 <
b1111 j"
b0 h"
b1 f"
b0 D
b0 :"
b0 M"
b0 ]
b0 9"
b0 K"
0\
b0 B
b0 ;"
1M
0N
0Z
1G
0a
0H
b1111 `
b1111 H"
b111100000000000010010011 3
b111100000000000010010011 ^
b111100000000000010010011 ,"
b111100000000000010010011 ="
b111100000000000010010011 >"
b0 $
b0 Q
b0 R"
b0 %
b0 R
b0 S"
b0 &
b0 S
b0 T"
b0 '
b0 T
b0 U"
b0 (
b0 U
b0 V"
b0 )
b0 V
b0 W"
b0 *
b0 W
b0 X"
b0 +
b0 X
b0 Y"
b0 ,
b0 Y
b0 Z"
b0 #
b0 P
b0 Q"
b0 "
b0 O
b0 P"
0-
b0 !
b0 g
b100 J
b100 j
b0 :
b0 f
b0 h
b0 <"
b100000 e"
b1000000 d"
b10000000000000 c"
b100000 l"
01
1.
#10000
0.
#15000
0p
b1111 u
0o
b1111111110001 _"
b10001 \"
b110001 O"
b111111110001 >
b11111111111111111111111111110001 2
b11111111111111111111111111110001 C
b11111111111111111111111111110001 g"
b1110 m
b11111111111111111111111111110001 e
b11111111111111111111111111110001 n
b11111111111111111111111111110001 x
b11111111111111111111111111110001 L"
b11111111111111111111111111110001 K
b11111111111111111111111111110001 l
b11111111111111111111111111110001 z
b11111111111111111111111111110001 }
b11111111111111111111111111110001 ""
b1111111 -"
b10 <
b10001 j"
b10 f"
b11111111111111111111111111110001 `
b11111111111111111111111111110001 H"
b1000 I
b11111111000100000000000100010011 3
b11111111000100000000000100010011 ^
b11111111000100000000000100010011 ,"
b11111111000100000000000100010011 ="
b11111111000100000000000100010011 >"
b0 ["
1-
b1000 J
b1000 j
b100 :
b100 f
b100 h
b100 <"
1.
11
#20000
0.
#25000
1p
b0xxxx ["
b11111111111111111111111111110000 u
b10000 _"
b10000 \"
b10000 O"
b10000 >
b10000 2
b10000 C
b10000 g"
b11111111111111111111111111101111 m
b10000 e
b10000 n
b10000 x
b10000 L"
b10000 K
b10000 l
b10000 z
b10000 }
b10000 ""
b0 -"
b11 <
b10000 j"
b11 f"
b10000 `
b10000 H"
b1100 I
b1000000000000000110010011 3
b1000000000000000110010011 ^
b1000000000000000110010011 ,"
b1000000000000000110010011 ="
b1000000000000000110010011 >"
b100 !
b100 g
b1100 J
b1100 j
b1000 :
b1000 f
b1000 h
b1000 <"
1.
#30000
0.
#35000
bx00000000 ["
b11111111111111111111111100000001 u
b11111111 _"
b11111 \"
b111111 O"
b11111111 >
b11111111 2
b11111111 C
b11111111 g"
b11111111111111111111111100000000 m
b11111111 e
b11111111 n
b11111111 x
b11111111 L"
b11111111 K
b11111111 l
b11111111 z
b11111111 }
b11111111 ""
b111 -"
b100 <
b11111 j"
b100 f"
b11111111 `
b11111111 H"
b10000 I
b1111111100000000001000010011 3
b1111111100000000001000010011 ^
b1111111100000000001000010011 ,"
b1111111100000000001000010011 ="
b1111111100000000001000010011 >"
b1000 !
b1000 g
b10000 J
b10000 j
b1100 :
b1100 f
b1100 h
b1100 <"
1.
#40000
0.
#45000
0p
bx ["
b10000000000000000000000000000000 u
1o
b0 _"
b0 \"
b0 O"
b0 >
b10000000000000000000000000000000 2
b10000000000000000000000000000000 C
b10000000000000000000000000000000 g"
b1111111111111111111111111111111 m
b10000000000000000000000000000000 e
b10000000000000000000000000000000 n
b10000000000000000000000000000000 x
b10000000000000000000000000000000 L"
b10000000000000000000000000000000 K
b10000000000000000000000000000000 l
b10000000000000000000000000000000 z
b10000000000000000000000000000000 }
b10000000000000000000000000000000 ""
b1000000 -"
b101 <
b0 j"
b101 f"
b1010 d
b1010 v
b1010 8"
b10000000000000000000000000000000 `
b10000000000000000000000000000000 H"
b10100 I
b10000000000000000000001010110111 3
b10000000000000000000001010110111 ^
b10000000000000000000001010110111 ,"
b10000000000000000000001010110111 ="
b10000000000000000000001010110111 >"
b1100 !
b1100 g
b10100 J
b10100 j
b10000 :
b10000 f
b10000 h
b10000 <"
1.
#50000
0.
#55000
1p
0o
0%"
0c
0*"
1b
1+"
bx00000000 ["
b10000000000000000000000000000001 u
b10000000000000000000000000000000 &"
b1 r
b1 ~
b11111111111111111111111111111111 s
b11111111111111111111111111111111 #"
b10000000000000000000000000000000 L
b10000000000000000000000000000000 k
b10000000000000000000000000000000 y
b10000000000000000000000000000000 |
b10000000000000000000000000000000 !"
b1111111111111 _"
b11111 \"
b111111 O"
b111111111111 >
b1111111111111111111111111111111 2
b1111111111111111111111111111111 C
b1111111111111111111111111111111 g"
b0 m
b10000000000000000000000000000000 F
b10000000000000000000000000000000 ("
b10000000000000000000000000000000 i"
b1111111111111111111111111111111 e
b1111111111111111111111111111111 n
b1111111111111111111111111111111 x
b1111111111111111111111111111111 L"
b11111111111111111111111111111111 K
b11111111111111111111111111111111 l
b11111111111111111111111111111111 z
b11111111111111111111111111111111 }
b11111111111111111111111111111111 ""
b1111111 -"
b11111 j"
b101 h"
b0 d
b0 v
b0 8"
b11111111111111111111111111111111 `
b11111111111111111111111111111111 H"
b11000 I
b11111111111100101000001010010011 3
b11111111111100101000001010010011 ^
b11111111111100101000001010010011 ,"
b11111111111100101000001010010011 ="
b11111111111100101000001010010011 >"
b10000 !
b10000 g
b11000 J
b11000 j
b10100 :
b10100 f
b10100 h
b10100 <"
1.
#60000
0.
#65000
1c
1*"
0p
bx ["
b1111111111111111111111111111111 m
1o
b10000000000000000000000000000000 K
b10000000000000000000000000000000 l
b10000000000000000000000000000000 z
b10000000000000000000000000000000 }
b10000000000000000000000000000000 ""
0b
0+"
b10000000000000000000000000000000 u
b0 _"
b0 \"
b0 O"
b0 >
b10000000000000000000000000000000 2
b10000000000000000000000000000000 C
b10000000000000000000000000000000 g"
b1000000 -"
b110 <
b0 j"
b0 h"
b110 f"
b1010 d
b1010 v
b1010 8"
b10000000000000000000000000000000 `
b10000000000000000000000000000000 H"
b0 &"
b0 s
b0 #"
b0 r
b0 ~
b0 t
b0 {
b10000000000000000000000000000000 e
b10000000000000000000000000000000 n
b10000000000000000000000000000000 x
b10000000000000000000000000000000 L"
b11100 I
b10000000000000000000001100110111 3
b10000000000000000000001100110111 ^
b10000000000000000000001100110111 ,"
b10000000000000000000001100110111 ="
b10000000000000000000001100110111 >"
b0 L
b0 k
b0 y
b0 |
b0 !"
b10100 !
b10100 g
b11100 J
b11100 j
b11000 :
b11000 f
b11000 h
b11000 <"
b0 F
b0 ("
b0 i"
1.
#70000
0.
#75000
bx00000000 ["
1b
1+"
1q
1p
0)"
0c
0*"
b11111 _"
b11111 \"
b11111 O"
b11111 >
b11111111111111111111111111111111 u
0w
0o
b11111111111111111111111111111111 &"
b11110000000000000000 t
b11110000000000000000 {
b11111111111111111111111111101111 $"
b1111 L
b1111 k
b1111 y
b1111 |
b1111 !"
b11111 2
b11111 C
b11111 g"
b11111111111111111111111111101111 m
b10000 ;
b10000 E
b10000 '"
b10000 ]"
b10000 k"
b1111 F
b1111 ("
b1111 i"
b11111 e
b11111 n
b11111 x
b11111 L"
b10000 K
b10000 l
b10000 z
b10000 }
b10000 ""
b0 -"
b111 <
b11 j"
b1 h"
b111 f"
b0 d
b0 v
b0 8"
1_
0M
1G
b0 `
b0 H"
b100000 I
b1100001000001110110011 3
b1100001000001110110011 ^
b1100001000001110110011 ,"
b1100001000001110110011 ="
b1100001000001110110011 >"
b11000 !
b11000 g
b100000 J
b100000 j
b11100 :
b11100 f
b11100 h
b11100 <"
1.
#80000
0.
#85000
b0xxxx ["
0q
b11111111111111111111111011110010 u
1w
b11110000 _"
b10000 \"
b110000 O"
b11110000 >
b11110000 2
b11110000 C
b11110000 g"
b11111111111111111111111100000000 m
b11111111111111111111111011110010 &"
1)"
b10000000000000000000000000000000 t
b10000000000000000000000000000000 {
b1 r
b1 ~
b11111111111111111111111111111111 s
b11111111111111111111111111111111 #"
b11110000 e
b11110000 n
b11110000 x
b11110000 L"
b11111111111111111111111100000000 $"
b11111111 K
b11111111 l
b11111111 z
b11111111 }
b11111111 ""
b11111111111111111111111111110001 L
b11111111111111111111111111110001 k
b11111111111111111111111111110001 y
b11111111111111111111111111110001 |
b11111111111111111111111111110001 !"
b11111111 ;
b11111111 E
b11111111 '"
b11111111 ]"
b11111111 k"
b11111111111111111111111111110001 F
b11111111111111111111111111110001 ("
b11111111111111111111111111110001 i"
b1000 <
b100 j"
b10 h"
b1000 f"
b100100 I
b10000010000010000110011 3
b10000010000010000110011 ^
b10000010000010000110011 ,"
b10000010000010000110011 ="
b10000010000010000110011 >"
b11100 !
b11100 g
b100100 J
b100100 j
b100000 :
b100000 f
b100000 h
b100000 <"
1.
#90000
0.
#95000
0p
1q
bx00000000 ["
0w
1o
0)"
1%"
0b
0+"
b11111111111111111111111111111111 u
b1111111111111 _"
b11111 \"
b111111 O"
b111111111111 >
b11111111111111111111111111111111 2
b11111111111111111111111111111111 C
b11111111111111111111111111111111 g"
b1111111111111111111111111111111 m
b11111111111111111111111111111111 &"
b1111111111111111111111111111111 s
b1111111111111111111111111111111 #"
b1111111111111111111111111111111 r
b1111111111111111111111111111111 ~
b1111111111111111111111111111111 t
b1111111111111111111111111111111 {
b11111111111111111111111111111111 e
b11111111111111111111111111111111 n
b11111111111111111111111111111111 x
b11111111111111111111111111111111 L"
b1111111111111111111111111111111 $"
b10000000000000000000000000000000 K
b10000000000000000000000000000000 l
b10000000000000000000000000000000 z
b10000000000000000000000000000000 }
b10000000000000000000000000000000 ""
b1111111111111111111111111111111 L
b1111111111111111111111111111111 k
b1111111111111111111111111111111 y
b1111111111111111111111111111111 |
b1111111111111111111111111111111 !"
b10000000000000000000000000000000 ;
b10000000000000000000000000000000 E
b10000000000000000000000000000000 '"
b10000000000000000000000000000000 ]"
b10000000000000000000000000000000 k"
b1111111111111111111111111111111 F
b1111111111111111111111111111111 ("
b1111111111111111111111111111111 i"
b1001 <
b110 j"
b101 h"
b1001 f"
b101000 I
b11000101000010010110011 3
b11000101000010010110011 ^
b11000101000010010110011 ,"
b11000101000010010110011 ="
b11000101000010010110011 >"
b100000 !
b100000 g
b101000 J
b101000 j
b100100 :
b100100 f
b100100 h
b100100 <"
1.
#100000
0.
#105000
b0xxxxxxxxxxxxxxxxxxxxxxxx ["
0q
0p
b1 _"
b1 \"
b1 O"
b1 >
b1 2
b1 C
b1 g"
1w
0o
b1 e
b1 n
b1 x
b1 L"
0%"
1)"
b1 u
b11111111111111111111111111110000 m
b1 &"
b10000000000000000000 t
b10000000000000000000 {
b0 r
b0 ~
b0 s
b0 #"
b11111111111111111111111111110000 $"
b1111 K
b1111 l
b1111 z
b1111 }
b1111 ""
b10000 L
b10000 k
b10000 y
b10000 |
b10000 !"
b1 d
b1 v
b1 8"
b1111 ;
b1111 E
b1111 '"
b1111 ]"
b1111 k"
b10000 F
b10000 ("
b10000 i"
b100000 -"
b1010 <
b1 j"
b11 h"
b1010 f"
b101100 I
b1000000000100011000010100110011 3
b1000000000100011000010100110011 ^
b1000000000100011000010100110011 ,"
b1000000000100011000010100110011 ="
b1000000000100011000010100110011 >"
b100100 !
b100100 g
b101100 J
b101100 j
b101000 :
b101000 f
b101000 h
b101000 <"
1.
#110000
0.
#115000
b0xxxx0000000000000000 ["
1q
b100001110 _"
b1110 \"
b1110 O"
b100001110 >
b100001110 2
b100001110 C
b100001110 g"
0w
b100001110 e
b100001110 n
b100001110 x
b100001110 L"
0)"
b100001110 u
b1110 m
b100001110 &"
b1111111100000000000000000 t
b1111111100000000000000000 {
b1110 $"
b11111111111111111111111111110001 K
b11111111111111111111111111110001 l
b11111111111111111111111111110001 z
b11111111111111111111111111110001 }
b11111111111111111111111111110001 ""
b11111111 L
b11111111 k
b11111111 y
b11111111 |
b11111111 !"
b11111111111111111111111111110001 ;
b11111111111111111111111111110001 E
b11111111111111111111111111110001 '"
b11111111111111111111111111110001 ]"
b11111111111111111111111111110001 k"
b11111111 F
b11111111 ("
b11111111 i"
b1011 <
b10 j"
b100 h"
b1011 f"
b110000 I
b1000000001000100000010110110011 3
b1000000001000100000010110110011 ^
b1000000001000100000010110110011 ,"
b1000000001000100000010110110011 ="
b1000000001000100000010110110011 >"
b101000 !
b101000 g
b110000 J
b110000 j
b101100 :
b101100 f
b101100 h
b101100 <"
1.
#120000
0.
#125000
1p
1)"
b0xxxx00000000 ["
b11111111111111111111111100010000 u
b1111 &"
b11111111111111111111111111111111 $"
b1111 L
b1111 k
b1111 y
b1111 |
b1111 !"
b1111 _"
b1111 \"
b1111 O"
b1111 >
b1111 2
b1111 C
b1111 g"
b11111111111111111111111100000000 m
b10000000000000000000000000000000 t
b10000000000000000000000000000000 {
b0 ;
b0 E
b0 '"
b0 ]"
b0 k"
b1111 F
b1111 ("
b1111 i"
b1111 e
b1111 n
b1111 x
b1111 L"
b11111111 K
b11111111 l
b11111111 z
b11111111 }
b11111111 ""
b111 ."
b111 -"
b1100 <
b11111 j"
b1 h"
b1100 f"
b110 d
b110 v
b110 8"
1M
b11111111 `
b11111111 H"
b110100 I
b1111111100001111011000010011 3
b1111111100001111011000010011 ^
b1111111100001111011000010011 ,"
b1111111100001111011000010011 ="
b1111111100001111011000010011 >"
b101100 !
b101100 g
b110100 J
b110100 j
b110000 :
b110000 f
b110000 h
b110000 <"
1.
#130000
0.
#135000
bx00000000 ["
b11111111 _"
b11111 \"
b111111 O"
b11111111 >
b11111111 2
b11111111 C
b11111111 g"
b11111111 e
b11111111 n
b11111111 x
b11111111 L"
b101 d
b101 v
b101 8"
b110 ."
b1101 <
b1101 f"
b111000 I
b1111111100001110011010010011 3
b1111111100001110011010010011 ^
b1111111100001110011010010011 ,"
b1111111100001110011010010011 ="
b1111111100001110011010010011 >"
b110000 !
b110000 g
b111000 J
b111000 j
b110100 :
b110100 f
b110100 h
b110100 <"
1.
#140000
0.
#145000
b0xxxx ["
b11110000 _"
b10000 \"
b110000 O"
b11110000 >
b11110000 2
b11110000 C
b11110000 g"
b11110000 e
b11110000 n
b11110000 x
b11110000 L"
b100 d
b100 v
b100 8"
b100 ."
b1110 <
b1110 f"
b111100 I
b1111111100001100011100010011 3
b1111111100001100011100010011 ^
b1111111100001100011100010011 ,"
b1111111100001100011100010011 ="
b1111111100001100011100010011 >"
b110100 !
b110100 g
b111100 J
b111100 j
b111000 :
b111000 f
b111000 h
b111000 <"
1.
#150000
0.
#155000
b0xxxxxxxxxxxxxxxxxxxxxxxx ["
b11111111111111111111111111111111 u
b1 _"
b1 \"
b1 O"
b1 >
b1 2
b1 C
b1 g"
b11111111111111111111111111101111 m
b11110000000000000000 t
b11110000000000000000 {
b1 e
b1 n
b1 x
b1 L"
b10 d
b10 v
b10 8"
b10000 K
b10000 l
b10000 z
b10000 }
b10000 ""
b10 ."
b0 -"
b1111 <
b10000 j"
b1111 f"
b10000 `
b10000 H"
b1000000 I
b1000000001010011110010011 3
b1000000001010011110010011 ^
b1000000001010011110010011 ,"
b1000000001010011110010011 ="
b1000000001010011110010011 >"
b111000 !
b111000 g
b1000000 J
b1000000 j
b111100 :
b111100 f
b111100 h
b111100 <"
1.
#160000
0.
#165000
bx ["
b0 _"
b0 \"
b0 O"
b0 >
b0 2
b0 C
b0 g"
b0 e
b0 n
b0 x
b0 L"
0p
0q
b1 u
1w
b1111 &"
b11111111111111111111111111111110 $"
b10000 L
b10000 k
b10000 y
b10000 |
b10000 !"
b11111111111111111111111111110000 m
b10000000000000000000 t
b10000000000000000000 {
b1 ;
b1 E
b1 '"
b1 ]"
b1 k"
b10000 F
b10000 ("
b10000 i"
b1111 K
b1111 l
b1111 z
b1111 }
b1111 ""
b10000 <
b1111 j"
b11 h"
b10000 f"
b1111 `
b1111 H"
b1000100 I
b111100011010100000010011 3
b111100011010100000010011 ^
b111100011010100000010011 ,"
b111100011010100000010011 ="
b111100011010100000010011 >"
b111100 !
b111100 g
b1000100 J
b1000100 j
b1000000 :
b1000000 f
b1000000 h
b1000000 <"
1.
#170000
0.
#175000
1q
b10000 &"
b10001 u
0w
b11111111111111111111111111111111 $"
b0 m
b0 t
b0 {
b0 ;
b0 E
b0 '"
b0 ]"
b0 k"
b11111111111111111111111111111111 K
b11111111111111111111111111111111 l
b11111111111111111111111111111111 z
b11111111111111111111111111111111 }
b11111111111111111111111111111111 ""
b1111111 -"
b11111 j"
b11111111111111111111111111111111 `
b11111111111111111111111111111111 H"
b1001000 I
b11111111111100011010100000010011 3
b11111111111100011010100000010011 ^
b11111111111100011010100000010011 ,"
b11111111111100011010100000010011 ="
b11111111111100011010100000010011 >"
b1000000 !
b1000000 g
b1001000 J
b1001000 j
b1000100 :
b1000100 f
b1000100 h
b1000100 <"
1.
#180000
0.
#185000
bx0000000000000000 ["
1c
1*"
b10 u
b0 &"
b1111111111110 _"
b11110 \"
b111110 O"
b111111111110 >
b11111111111111111111111111111110 2
b11111111111111111111111111111110 C
b11111111111111111111111111111110 g"
b0 L
b0 k
b0 y
b0 |
b0 !"
b1 m
b11111111111111111111111111111110 e
b11111111111111111111111111111110 n
b11111111111111111111111111111110 x
b11111111111111111111111111111110 L"
b0 d
b0 v
b0 8"
b0 F
b0 ("
b0 i"
b11111111111111111111111111111110 K
b11111111111111111111111111111110 l
b11111111111111111111111111111110 z
b11111111111111111111111111111110 }
b11111111111111111111111111111110 ""
b0 ."
b11 <
b11110 j"
b0 h"
b11 f"
b11111111111111111111111111111110 `
b11111111111111111111111111111110 H"
b1001100 I
b11111111111000000000000110010011 3
b11111111111000000000000110010011 ^
b11111111111000000000000110010011 ,"
b11111111111000000000000110010011 ="
b11111111111000000000000110010011 >"
b1000100 !
b1000100 g
b1001100 J
b1001100 j
b1001000 :
b1001000 f
b1001000 h
b1001000 <"
1.
#190000
0.
