add4/sim/adder_tb.vcd
$date
	Tue Oct  8 10:32:53 2024
$end
$version
	Icarus Verilog
$end
$timescale
	1ps
$end
$scope module adder_tb $end
$var wire 32 ! adder_data [31:0] $end
$var reg 32 " a [31:0] $end
$var reg 32 # b [31:0] $end
$var reg 32 $ operand_a [31:0] $end
$var reg 32 % operand_b [31:0] $end
$var integer 32 & fd [31:0] $end
$scope module inst_adder $end
$var wire 32 ' operand_a [31:0] $end
$var wire 32 ( operand_b [31:0] $end
$var wire 32 ) adder_data [31:0] $end
$upscope $end
$scope begin $unm_blk_3 $end
$var integer 32 * t [31:0] $end
$upscope $end
$scope task adder $end
$upscope $end
$upscope $end
$enddefinitions $end
$comment Show the parameter values. $end
$dumpall
$end
#0
$dumpvars
b1110 *
bx )
bx (
bx '
b10000000000000000000000000000011 &
bx %
bx $
bx #
bx "
bx !
$end
#10000
b10001100111001100100100100011001 !
b10001100111001100100100100011001 )
b1100110101111000011100011001 %
b1100110101111000011100011001 (
b10000000000011101100001000000000 $
b10000000000011101100001000000000 '
b1100110101111000011100011001 #
b10000000000011101100001000000000 "
b10001100110101111000010000001100 *
#21000
b11001100000101011110100110011 %
b11001100000101011110100110011 (
b11010111110110000001011110101111 !
b11010111110110000001011110101111 )
b10111110010101010101101001111100 $
b10111110010101010101101001111100 '
b11001100000101011110100110011 #
b10111110010101010101101001111100 "
b10011001100000101011101110111010 *
#32000
b111000011010001101110101110000 %
b111000011010001101110101110000 (
b101010110111010010000001001 !
b101010110111010010000001001 )
b11001100111100101100011010011001 $
b11001100111100101100011010011001 '
b111000011010001101110101110000 #
b11001100111100101100011010011001 "
b10111000011010001101101010011000 *
#43000
b100001110011100010001101000011 %
b100001110011100010001101000011 (
b1111011011101101110100011110110 !
b1111011011101101110100011110110 )
b1011001101010001100010110110011 $
b1011001101010001100010110110011 '
b100001110011100010001101000011 #
b1011001101010001100010110110011 "
b10100001110011100010000000100110 *
#54000
b10100001111001011011100001000011 %
b10100001111001011011100001000011 (
b1001011101111010110011010010110 !
b1001011101111010110011010010110 )
b10101001110101111010111001010011 $
b10101001110101111010111001010011 '
b10100001111001011011100001000011 #
b10101001110101111010111001010011 "
b100001111001011011011111100100 *
#65000
b11110110111011101001101011101101 %
b11110110111011101001101011101101 (
b11111110000111010111000111111011 !
b11111110000111010111000111111011 )
b111001011101101011100001110 $
b111001011101101011100001110 '
b11110110111011101001101011101101 #
b111001011101101011100001110 "
b1110110111011101001100101010010 *
#76000
b110011000100110110100101100110 %
b110011000100110110100101100110 (
b10100111001111110101110101001110 !
b10100111001111110101110101001110 )
b1110100001010111111001111101000 $
b1110100001010111111001111101000 '
b110011000100110110100101100110 #
b1110100001010111111001111101000 "
b10110011000100110110011111110000 *
#87000
b11010100001010101010100110101 %
b11010100001010101010100110101 (
b1100101010001101100001011001010 !
b1100101010001101100001011001010 )
b1001010110000010110110110010101 $
b1001010110000010110110110010101 '
b11010100001010101010100110101 #
b1001010110000010110110110010101 "
b10011010100001010101001100111110 *
#98000
b11001000010011111100100110010 %
b11001000010011111100100110010 (
b1101110010001011100101011011100 !
b1101110010001011100101011011100 )
b1010101001110111101000110101010 $
b1010101001110111101000110101010 '
b11001000010011111100100110010 #
b1010101001110111101000110101010 "
b10011001000010011111011010111100 *
#109000
b11111010111101000011101011110101 %
b11111010111101000011101011110101 (
b10000000001100100101110011111111 !
b10000000001100100101110011111111 )
b10000101001111100010001000001010 $
b10000101001111100010001000001010 '
b11111010111101000011101011110101 #
b10000101001111100010001000001010 "
b1111010111101000011100111101010 *
#120000
b1000100010000000011001110001000 %
b1000100010000000011001110001000 (
b11011010101011010111011110110100 !
b11011010101011010111011110110100 )
b10010110011011010100010000101100 $
b10010110011011010100010000101100 '
b1000100010000000011001110001000 #
b10010110011011010100010000101100 "
b11000100010000000011000001001000 *
#131000
b11111101010010011111101011111010 %
b11111101010010011111101011111010 (
b10111011011000100111000101110 !
b10111011011000100111000101110 )
b11010001000100101001100110100 $
b11010001000100101001100110100 '
b11111101010010011111101011111010 #
b11010001000100101001100110100 "
b1111101010010011111100101010110 *
#142000
b11000111010101111010001010001110 %
b11000111010101111010001010001110 (
b1010110100100111010101010101100 !
b1010110100100111010101010101100 )
b10001111001111000000100000011110 $
b10001111001111000000100000011110 '
b11000111010101111010001010001110 #
b10001111001111000000100000011110 "
b1000111010101111010000010010100 *
#153000
b10110011111011011111111001100111 %
b10110011111011011111111001100111 (
b1101000110101010001101011010000 !
b1101000110101010001101011010000 )
b10110100111001110001110001101001 $
b10110100111001110001110001101001 '
b10110011111011011111111001100111 #
b10110100111001110001110001101001 "
b110011111011011111110110000010 *
#164000
b11100000101010001001010011000001 %
b11100000101010001001010011000001 (
b1001100111100011001000010010 !
b1001100111100011001000010010 )
b101000111101011001110101010001 $
b101000111101011001110101010001 '
b11100000101010001001010011000001 #
b101000111101011001110101010001 "
b1100000101010001001001110100000 *
#175000
b11101110000011000111010011011100 %
b11101110000011000111010011011100 (
b11111000001010011100110111110000 !
b11111000001010011100110111110000 )
b1010000111010101100100010100 $
b1010000111010101100100010100 '
b11101110000011000111010011011100 #
b1010000111010101100100010100 "
b1101110000011000111001001101110 *
#186000
b111010100011100001011101110101 %
b111010100011100001011101110101 (
b11101110110000110101000111011101 !
b11101110110000110101000111011101 )
b10110100001101010011101001101000 $
b10110100001101010011101001101000 '
b111010100011100001011101110101 #
b10110100001101010011101001101000 "
b10111010100011100001010101101100 *
#197000
b1011110000100100011100010111 %
b1011110000100100011100010111 (
b111100000010111110110001110111 !
b111100000010111110110001110111 )
b110000010010011010010101100000 $
b110000010010011010010101100000 '
b1011110000100100011100010111 #
b110000010010011010010101100000 "
b10001011110000100100010000011010 *
#208000
b10101110011100011111001001011100 %
b10101110011100011111001001011100 (
b111010100100011100111001110100 !
b111010100100011100111001110100 )
b10001100000111111101110000011000 $
b10001100000111111101110000011000 '
b10101110011100011111001001011100 #
b10001100000111111101110000011000 "
b101110011100011111000111111000 *
#219000
b11000011000010010010000010000110 %
b11000011000010010010000010000110 (
b101111100010010111111001011111 !
b101111100010010111111001011111 )
b1101100100000000101110111011001 $
b1101100100000000101110111011001 '
b11000011000010010010000010000110 #
b1101100100000000101110111011001 "
b1000011000010010001111010000110 *
#230000
b10010110100110001011011000101101 %
b10010110100110001011011000101101 (
b1011001111110001111011010110011 !
b1011001111110001111011010110011 )
b11000011011000000100000010000110 $
b11000011011000000100000010000110 '
b10010110100110001011011000101101 #
b11000011011000000100000010000110 "
b10110100110001011010101000100 *
#241000
b1000001011000110110111110000010 %
b1000001011000110110111110000010 (
b1010000001001010000110010011111 !
b1010000001001010000110010011111 )
b1110110000011001110100011101 $
b1110110000011001110100011101 '
b1000001011000110110111110000010 #
b1110110000011001110100011101 "
b11000001011000110110110110110010 *
#252000
b1111010101011011010110111110101 %
b1111010101011011010110111110101 (
b1010001100100001001000010100010 !
b1010001100100001001000010100010 )
b11010110111000101110001010101101 $
b11010110111000101110001010101101 '
b1111010101011011010110111110101 #
b11010110111000101110001010101101 "
b11111010101011011010101101010000 *
#263000
b1010110010010000101111110101100 %
b1010110010010000101111110101100 (
b10000010111011010000000100000 !
b10000010111011010000000100000 )
b10111010000101010100000001110100 $
b10111010000101010100000001110100 '
b1010110010010000101111110101100 #
b10111010000101010100000001110100 "
b11010110010010000101110110011110 *
#274000
b10100011000011101110001001000110 %
b10100011000011101110001001000110 (
b11000101011000001110000110001010 !
b11000101011000001110000110001010 )
b100010010100011111111101000100 $
b100010010100011111111101000100 '
b10100011000011101110001001000110 #
b100010010100011111111101000100 "
b100011000011101110000000011100 *
#285000
b10010010011111101110100100100 %
b10010010011111101110100100100 (
b1000110101101101100001010001100 !
b1000110101101101100001010001100 )
b110100011001101110010101101000 $
b110100011001101110010101101000 '
b10010010011111101110100100100 #
b110100011001101110010101101000 "
b10010010010011111101101001001010 *
#296000
b11011110110110010010000010111101 %
b11011110110110010010000010111101 (
b1110001001010101011000011100001 !
b1110001001010101011000011100001 )
b10010010010100011001000000100100 $
b10010010010100011001000000100100 '
b11011110110110010010000010111101 #
b10010010010100011001000000100100 "
b1011110110110010001111110101000 *
#307000
b111000111101001000100001110 %
b111000111101001000100001110 (
b10100001010000000111001101000010 !
b10100001010000000111001101000010 )
b10011010001000011110001000110100 $
b10011010001000011110001000110100 '
b111000111101001000100001110 #
b10011010001000011110001000110100 "
b10000111000111101000111110110110 *
#318000
b10001000101100111111011000010001 %
b10001000101100111111011000010001 (
b1011001001011110100101010110001 !
b1011001001011110100101010110001 )
b11010000011110110101010010100000 $
b11010000011110110101010010100000 '
b10001000101100111111011000010001 #
b11010000011110110101010010100000 "
b1000101100111111010111110100 *
#329000
b10100000100011110101100101000 %
b10100000100011110101100101000 (
b10100101100111110100010101001011 !
b10100101100111110100010101001011 )
b10010001100011010101101000100011 $
b10010001100011010101101000100011 '
b10100000100011110101100101000 #
b10010001100011010101101000100011 "
b10010100000100011110100111100010 *
#340000
b10010110010111011011000000101100 %
b10010110010111011011000000101100 (
b1111011011110000111010011110110 !
b1111011011110000111010011110110 )
b11100101000110101100010011001010 $
b11100101000110101100010011001010 '
b10010110010111011011000000101100 #
b11100101000110101100010011001010 "
b10110010111011010111100000000 *
#351000
b1101011101011000001011111010111 %
b1101011101011000001011111010111 (
b1000101100101000011110010001010 !
b1000101100101000011110010001010 )
b11011001111010000010010010110011 $
b11011001111010000010010010110011 '
b1101011101011000001011111010111 #
b11011001111010000010010010110011 "
b11101011101011000001010011001110 *
#362000
b111110111101110101100101111101 %
b111110111101110101100101111101 (
b1001001101000000111101010010010 !
b1001001101000000111101010010010 )
b1010101010010010000100010101 $
b1010101010010010000100010101 '
b111110111101110101100101111101 #
b1010101010010010000100010101 "
b10111110111101110101011011001100 *
#373000
b111101101111111111111101111011 %
b111101101111111111111101111011 (
b10010000000001001101111100011111 !
b10010000000001001101111100011111 )
b1010010010001001101111110100100 $
b1010010010001001101111110100100 '
b111101101111111111111101111011 #
b1010010010001001101111110100100 "
b10111101101111111111110001111010 *
#384000
b10000100000100001011101000001000 %
b10000100000100001011101000001000 (
b10110011000110100001101101100110 !
b10110011000110100001101101100110 )
b101111000010010110000101011110 $
b101111000010010110000101011110 '
b10000100000100001011101000001000 #
b101111000010010110000101011110 "
b100000100001011100101011000 *
#395000
b110010010111010100111101100100 %
b110010010111010100111101100100 (
b10000110100000110011010100001100 !
b10000110100000110011010100001100 )
b1010100001001011110010110101000 $
b1010100001001011110010110101000 '
b110010010111010100111101100100 #
b1010100001001011110010110101000 "
b10110010010111010100110011100110 *
#406000
b10101001011101000110010001010010 %
b10101001011101000110010001010010 (
b111111110001010101000001111 !
b111111110001010101000001111 )
b1011110100001000100010110111101 $
b1011110100001000100010110111101 '
b10101001011101000110010001010010 #
b1011110100001000100010110111101 "
b101001011101000110001010100100 *
#417000
b10100001011111000111010001000010 %
b10100001011111000111010001000010 (
b10011111010101011100011100111101 !
b10011111010101011100011100111101 )
b11111101110110010101001011111011 $
b11111101110110010101001011111011 '
b10100001011111000111010001000010 #
b11111101110110010101001011111011 "
b100001011111000111001000010010 *
#428000
b1100111101100111010000111001111 %
b1100111101100111010000111001111 (
b1111100001101111110011011111000 !
b1111100001101111110011011111000 )
b10100100001000100010100101001 $
b10100100001000100010100101001 '
b1100111101100111010000111001111 #
b10100100001000100010100101001 "
b11100111101100111001111010110000 *
#439000
b110011011010101001100101100110 %
b110011011010101001100101100110 (
b11111011111111111001110111110111 !
b11111011111111111001110111110111 )
b11001000100101010000010010010001 $
b11001000100101010000010010010001 '
b110011011010101001100101100110 #
b11001000100101010000010010010001 "
b10110011011010101001011111111110 *
#450000
b1100101011100100111101111001010 %
b1100101011100100111101111001010 (
b10010011100001000001101100100110 !
b10010011100001000001101100100110 )
b101110000100011001111101011100 $
b101110000100011001111101011100 '
b1100101011100100111101111001010 #
b101110000100011001111101011100 "
b11100101011100100111100101111100 *
#461000
b1010101111101011010110110101011 %
b1010101111101011010110110101011 (
b11011100010010000100001110110111 !
b11011100010010000100001110110111 )
b10000110010100101001011000001100 $
b10000110010100101001011000001100 '
b1010101111101011010110110101011 #
b10000110010100101001011000001100 "
b11010101111101011010101010101010 *
#472000
b1000011011100111100000110000110 %
b1000011011100111100000110000110 (
b111101100000100001000001111010 !
b111101100000100001000001111010 )
b11111010000011100100111011110100 $
b11111010000011100100111011110100 '
b1000011011100111100000110000110 #
b11111010000011100100111011110100 "
b11000011011100111011111100001000 *
#483000
b10110010010110000101100001100100 %
b10110010010110000101100001100100 (
b1010101110000111011101010101010 !
b1010101110000111011101010101010 )
b10100011011010110110001001000110 $
b10100011011010110110001001000110 '
b10110010010110000101100001100100 #
b10100011011010110110001001000110 "
b110010010110000101011000010110 *
#494000
b1000111011001001111110110001110 %
b1000111011001001111110110001110 (
b11101010100101110000101111010100 !
b11101010100101110000101111010100 )
b10100011001100100000111001000110 $
b10100011001100100000111001000110 '
b1000111011001001111110110001110 #
b10100011001100100000111001000110 "
b11000111011001001111101101010100 *
#505000
b10001111111001100000100000011111 %
b10001111111001100000100000011111 (
b11010111110110101001000110101110 !
b11010111110110101001000110101110 )
b1000111111101001000100110001111 $
b1000111111101001000100110001111 '
b10001111111001100000100000011111 #
b1000111111101001000100110001111 "
b1111111001100000011001000010 *
#516000
b1110001011010100111110111100010 %
b1110001011010100111110111100010 (
b1100001001100001101110011000001 !
b1100001001100001101110011000001 )
b11101111110001100101111011011111 $
b11101111110001100101111011011111 '
b1110001011010100111110111100010 #
b11101111110001100101111011011111 "
b11110001011010100111101001100000 *
#527000
b11001111011101101110100010011110 %
b11001111011101101110100010011110 (
b10000100010100011100100100000111 !
b10000100010100011100100100000111 )
b10110100110110101110000001101001 $
b10110100110110101110000001101001 '
b11001111011101101110100010011110 #
b10110100110110101110000001101001 "
b1001111011101101110011100101110 *
#538000
b10001000011010110100101000010000 %
b10001000011010110100101000010000 (
b10011011100011011100000100110110 !
b10011011100011011100000100110110 )
b10011001000100111011100100110 $
b10011001000100111011100100110 '
b10001000011010110100101000010000 #
b10011001000100111011100100110 "
b1000011010110100100000101100 *
#549000
b11101011100100111110011011010111 %
b11101011100100111110011011010111 (
b11100100010100101110111111001000 !
b11100100010100101110111111001000 )
b11111000101111110000100011110001 $
b11111000101111110000100011110001 '
b11101011100100111110011011010111 #
b11111000101111110000100011110001 "
b1101011100100111110010011011010 *
#560000
b1101001000111010011001111010010 %
b1101001000111010011001111010010 (
b1110110000001001000101011101011 !
b1110110000001001000101011101011 )
b1100111001110101011100011001 $
b1100111001110101011100011001 '
b1101001000111010011001111010010 #
b1100111001110101011100011001 "
b11101001000111010011000010111000 *
#571000
b101001011000101010110101010010 %
b101001011000101010110101010010 (
b1111101000000101000000011 !
b1111101000000101000000011 )
b11011000100100010101110010110001 $
b11011000100100010101110010110001 '
b101001011000101010110101010010 #
b11011000100100010101110010110001 "
b10101001011000101010101101000110 *
#582000
b10100011110100001100001001000111 %
b10100011110100001100001001000111 (
b1110101110011000111100011101010 !
b1110101110011000111100011101010 )
b11010001111110111011011010100011 $
b11010001111110111011011010100011 '
b10100011110100001100001001000111 #
b11010001111110111011011010100011 "
b100011110100001100000000000100 *
#593000
b11100110010100011010100011001100 %
b11100110010100011010100011001100 (
b1101110001111111010000011011011 !
b1101110001111111010000011011011 )
b10000111111011011111100000001111 $
b10000111111011011111100000001111 '
b11100110010100011010100011001100 #
b10000111111011011111100000001111 "
b1100110010100011010011001110010 *
#604000
b110100111111010100010101101001 %
b110100111111010100010101101001 (
b1110000010001010101101011011111 !
b1110000010001010101101011011111 )
b111011010010000001010101110110 $
b111011010010000001010101110110 '
b110100111111010100010101101001 #
b111011010010000001010101110110 "
b10110100111111010100001000010000 *
#615000
b10101110100001000000010001011101 %
b10101110100001000000010001011101 (
b111011101111001011110001110111 !
b111011101111001011110001110111 )
b10001101001110001011100000011010 $
b10001101001110001011100000011010 '
b10101110100001000000010001011101 #
b10001101001110001011100000011010 "
b101110100001000000001001011110 *
#626000
b11100100100011001100010011001001 %
b11100100100011001100010011001001 (
b1011010101111110111001010110101 !
b1011010101111110111001010110101 )
b1110110001100101010110111101100 $
b1110110001100101010110111101100 '
b11100100100011001100010011001001 #
b1110110001100101010110111101100 "
b1100100100011001100001011011100 *
#637000
b10000111111111011010110000001111 %
b10000111111111011010110000001111 (
b1110101011101101110010011101001 !
b1110101011101101110010011101001 )
b11101101011110010011100011011010 $
b11101101011110010011100011011010 '
b10000111111111011010110000001111 #
b11101101011110010011100011011010 "
b111111111011010101100001010 *
#648000
b10010111111010000001000000101111 %
b10010111111010000001000000101111 (
b1010110000111000110000010100 !
b1010110000111000110000010100 )
b1110010110110110111101111100101 $
b1110010110110110111101111100101 '
b10010111111010000001000000101111 #
b1110010110110110111101111100101 "
b10111111010000000111001101000 *
#659000
b10011110100011110100111000111101 %
b10011110100011110100111000111101 (
b11010100001100010001000110100 !
b11010100001100010001000110100 )
b1111011111101101101001111110111 $
b1111011111101101101001111110111 '
b10011110100011110100111000111101 #
b1111011111101101101001111110111 "
b11110100011110100110001110110 *
#670000
b10100010110000101011001001000101 %
b10100010110000101011001001000101 (
b101110110110101110110001011101 !
b101110110110101110110001011101 )
b10001100000110000011101000011000 $
b10001100000110000011101000011000 '
b10100010110000101011001001000101 #
b10001100000110000011101000011000 "
b100010110000101011000010110100 *
#681000
b111100100000100101010101111001 %
b111100100000100101010101111001 (
b100110000101101111110001001100 !
b100110000101101111110001001100 )
b11101001100101001010011011010011 $
b11101001100101001010011011010011 '
b111100100000100101010101111001 #
b11101001100101001010011011010011 "
b10111100100000100101001010100010 *
#692000
b11100010101001101111011011000101 %
b11100010101001101111011011000101 (
b1000111110101110101111010001111 !
b1000111110101110101111010001111 )
b1100101001100000110011111001010 $
b1100101001100000110011111001010 '
b11100010101001101111011011000101 #
b1100101001100000110011111001010 "
b1100010101001101111010111000000 *
#703000
b10111100000001001110101001111000 %
b10111100000001001110101001111000 (
b10101011111100100111011101010111 !
b10101011111100100111011101010111 )
b11101111111011011000110011011111 $
b11101111111011011000110011011111 '
b10111100000001001110101001111000 #
b11101111111011011000110011011111 "
b111100000001001110100110001110 *
#714000
b110001010000011110101101100010 %
b110001010000011110101101100010 (
b11101010100110110010100111010100 !
b11101010100110110010100111010100 )
b10111001010110010011111001110010 $
b10111001010110010011111001110010 '
b110001010000011110101101100010 #
b10111001010110010011111001110010 "
b10110001010000011110100110001100 *
#725000
b11011101010101011111111010111010 %
b11011101010101011111111010111010 (
b10010001100001100010000100100010 !
b10010001100001100010000100100010 )
b10110100001100000010001001101000 $
b10110100001100000010001001101000 '
b11011101010101011111111010111010 #
b10110100001100000010001001101000 "
b1011101010101011111110100111010 *
#736000
b1111001011011110101101111110010 %
b1111001011011110101101111110010 (
b10010011000010001011000100011 !
b10010011000010001011000100011 )
b10011000111100011011101000110001 $
b10011000111100011011101000110001 '
b1111001011011110101101111110010 #
b10011000111100011011101000110001 "
b11111001011011110101100000011000 *
#747000
b10101101101100010011101001011011 %
b10101101101100010011101001011011 (
b11101011011010111111111111010110 !
b11101011011010111111111111010110 )
b111101101110101100010101111011 $
b111101101110101100010101111011 '
b10101101101100010011101001011011 #
b111101101110101100010101111011 "
b101101101100010011100110100110 *
#758000
b1111011000001011100111111110110 %
b1111011000001011100111111110110 (
b11001011100001000110100110010110 !
b11001011100001000110100110010110 )
b1010000011111101001100110100000 $
b1010000011111101001100110100000 '
b1111011000001011100111111110110 #
b1010000011111101001100110100000 "
b11111011000001011100110101100100 *
#769000
b11101010111110110000110011010101 %
b11101010111110110000110011010101 (
b10000111011100101001101100001101 !
b10000111011100101001101100001101 )
b10011100011101111000111000111000 $
b10011100011101111000111000111000 '
b11101010111110110000110011010101 #
b10011100011101111000111000111000 "
b1101010111110110000101011010010 *
#780000
b1001011000101001011100010010 %
b1001011000101001011100010010 (
b11111110110010001110110111111100 !
b11111110110010001110110111111100 )
b11110101011001100101011011101010 $
b11110101011001100101011011101010 '
b1001011000101001011100010010 #
b11110101011001100101011011101010 "
b10001001011000101001010101110000 *
#791000
b10010000001011001001111000100000 %
b10010000001011001001111000100000 (
b10101011001001001111101101010101 !
b10101011001001001111101101010101 )
b11010111110000101110100110101 $
b11010111110000101110100110101 '
b10010000001011001001111000100000 #
b11010111110000101110100110101 "
b10000001011001001110010111110 *
#802000
b1010000101101011011111110100001 %
b1010000101101011011111110100001 (
b10100101001000101110110101001001 !
b10100101001000101110110101001001 )
b1010100011011010010110110101000 $
b1010100011011010010110110101000 '
b1010000101101011011111110100001 #
b1010100011011010010110110101000 "
b11010000101101011011110000111100 *
#813000
b11110110011111111101110011101100 %
b11110110011111111101110011101100 (
b10001110110100101010011100011100 !
b10001110110100101010011100011100 )
b10011000010100101100101000110000 $
b10011000010100101100101000110000 '
b11110110011111111101110011101100 #
b10011000010100101100101000110000 "
b1110110011111111101101101101010 *
#824000
b1101110000011100000111111011100 %
b1101110000011100000111111011100 (
b101011111111110010011001010111 !
b101011111111110010011001010111 )
b10111101111100010001011001111011 $
b10111101111100010001011001111011 '
b1101110000011100000111111011100 #
b10111101111100010001011001111011 "
b11101110000011100000110111001000 *
#835000
b10110111010110110111010001101110 %
b10110111010110110111010001101110 (
b10011101000101111010011100111001 !
b10011101000101111010011100111001 )
b11100101101111000011001011001011 $
b11100101101111000011001011001011 '
b10110111010110110111010001101110 #
b11100101101111000011001011001011 "
b110111010110110111001011010110 *
#846000
b1100110001001010001100111001100 %
b1100110001001010001100111001100 (
b1010010000010101110111010100011 !
b1010010000010101110111010100011 )
b11101011111001011101010011010111 $
b11101011111001011101010011010111 '
b1100110001001010001100111001100 #
b11101011111001011101010011010111 "
b11100110001001010001011000010100 *
#857000
b111010111111101101000101110101 %
b111010111111101101000101110101 (
b11111110111001001000010111111100 !
b11111110111001001000010111111100 )
b11000011111001011011010010000111 $
b11000011111001011011010010000111 '
b111010111111101101000101110101 #
b11000011111001011011010010000111 "
b10111010111111101100111100000010 *
#868000
b1000110111010110010001110001101 %
b1000110111010110010001110001101 (
b1000100011111000000010010001000 !
b1000100011111000000010010001000 )
b11111101100100001110000011111011 $
b11111101100100001110000011111011 '
b1000110111010110010001110001101 #
b11111101100100001110000011111011 "
b11000110111010110010000100100000 *
#879000
b10011111111011100001110000111111 %
b10011111111011100001110000111111 (
b1111100000001100100010011110111 !
b1111100000001100100010011110111 )
b11011100000110000010100010111000 $
b11011100000110000010100010111000 '
b10011111111011100001110000111111 #
b11011100000110000010100010111000 "
b11111111011100001101111101110 *
#890000
b11111111110100110011110011111111 %
b11111111110100110011110011111111 (
b1000100110110001011001010001001 !
b1000100110110001011001010001001 )
b1000101000001010111010110001010 $
b1000101000001010111010110001010 '
b11111111110100110011110011111111 #
b1000101000001010111010110001010 "
b1111111110100110011101011101100 *
#901000
b1100111000111100100011111001110 %
b1100111000111100100011111001110 (
b111000001011100111010001110000 !
b111000001011100111010001110000 )
b11010001000100000010110010100010 $
b11010001000100000010110010100010 '
b1100111000111100100011111001110 #
b11010001000100000010110010100010 "
b11100111000111100100010110011010 *
#912000
b111100110111110011000101111001 %
b111100110111110011000101111001 (
b10011111001111111100001100111101 !
b10011111001111111100001100111101 )
b1100010011000001001000111000100 $
b1100010011000001001000111000100 '
b111100110111110011000101111001 #
b1100010011000001001000111000100 "
b10111100110111110010111101111000 *
#923000
b10000111000001111101100100001 %
b10000111000001111101100100001 (
b1010100011110110001100010101000 !
b1010100011110110001100010101000 )
b1000011100110100001110110000111 $
b1000011100110100001110110000111 '
b10000111000001111101100100001 #
b1000011100110100001110110000111 "
b10010000111000001111100000000110 *
#934000
b1010000011010111000110110100000 %
b1010000011010111000110110100000 (
b111001001100000111101001110001 !
b111001001100000111101001110001 )
b11101000110001001110110011010001 $
b11101000110001001110110011010001 '
b1010000011010111000110110100000 #
b11101000110001001110110011010001 "
b11010000011010111000101011000100 *
#945000
b10010110100100001010000000101101 %
b10010110100100001010000000101101 (
b11111101011111101011010111111010 !
b11111101011111101011010111111010 )
b1100110111011100001010111001101 $
b1100110111011100001010111001101 '
b10010110100100001010000000101101 #
b1100110111011100001010111001101 "
b10110100100001001111100110010 *
#956000
b11110111101110111001101011101111 %
b11110111101110111001101011101111 (
b10000000110100101010000100000001 !
b10000000110100101010000100000001 )
b10001001000101110000011000010010 $
b10001001000101110000011000010010 '
b11110111101110111001101011101111 #
b10001001000101110000011000010010 "
b1110111101110111001100011010000 *
#967000
b1101100111111000110100111011001 %
b1101100111111000110100111011001 (
b11101101110010000101100111011010 !
b11101101110010000101100111011010 )
b10000000110010111111000000000001 $
b10000000110010111111000000000001 '
b1101100111111000110100111011001 #
b10000000110010111111000000000001 "
b11101100111111000110011100011110 *
#978000
b10000110010001010110011000001100 %
b10000110010001010110011000001100 (
b100101111101000001000001000 !
b100101111101000001000001000 )
b1111110011110010001101111111100 $
b1111110011110010001101111111100 '
b10000110010001010110011000001100 #
b1111110011110010001101111111100 "
b110010001010110010110011100 *
#989000
b1111011100101000011110111110111 %
b1111011100101000011110111110111 (
b11101100111010111000100111011001 !
b11101100111010111000100111011001 )
b1110001010101110100101111100010 $
b1110001010101110100101111100010 '
b1111011100101000011110111110111 #
b1110001010101110100101111100010 "
b11111011100101000011101111001010 *
#1000000
b11000011101111011011111010000111 %
b11000011101111011011111010000111 (
b1111100010001001110001011111000 !
b1111100010001001110001011111000 )
b10111000100001110010010001110001 $
b10111000100001110010010001110001 '
b11000011101111011011111010000111 #
b10111000100001110010010001110001 "
b1000011101111011011110100101000 *
#1011000
b110100010101001100101101101000 %
b110100010101001100101101101000 (
b1010011000010000100111010100101 !
b1010011000010000100111010100101 )
b11110101100111000001100111101 $
b11110101100111000001100111101 '
b110100010101001100101101101000 #
b11110101100111000001100111101 "
b10110100010101001100100100110110 *
#1022000
b10001000111001000010110000010001 %
b10001000111001000010110000010001 (
b10001000001101110000110100001111 !
b10001000001101110000110100001111 )
b11111111010100101110000011111110 $
b11111111010100101110000011111110 '
b10001000111001000010110000010001 #
b11111111010100101110000011111110 "
b1000111001000010101101110100 *
#1033000
b10111000011100110111110001110000 %
b10111000011100110111110001110000 (
b11000110100110010111000110000 !
b11000110100110010111000110000 )
b1100000010111111011000111000000 $
b1100000010111111011000111000000 '
b10111000011100110111110001110000 #
b1100000010111111011000111000000 "
b111000011100110111101101100010 *
#1044000
b11100111000011101111111011001110 %
b11100111000011101111111011001110 (
b11110100001011101100011111101000 !
b11110100001011101100011111101000 )
b1101000111111100100100011010 $
b1101000111111100100100011010 '
b11100111000011101111111011001110 #
b1101000111111100100100011010 "
b1100111000011101111110010000000 *
#1055000
b10110101110010101000000001101011 %
b10110101110010101000000001101011 (
b1111100000111010011010011110111 !
b1111100000111010011010011110111 )
b11000110010100101011010010001100 $
b11000110010100101011010010001100 '
b10110101110010101000000001101011 #
b11000110010100101011010010001100 "
b110101110010100111111001001110 *
#1066000
b1100110011101110011111111001100 %
b1100110011101110011111111001100 (
b11000000010101100101110101111111 !
b11000000010101100101110101111111 )
b1011001110111110001110110110011 $
b1011001110111110001110110110011 '
b1100110011101110011111111001100 #
b1011001110111110001110110110011 "
b11100110011101110011110001001100 *
#1077000
b1101001000001001011111111010010 %
b1101001000001001011111111010010 (
b11000000110110111110011110000001 !
b11000000110110111110011110000001 )
b1010111110101110010011110101111 $
b1010111110101110010011110101111 '
b1101001000001001011111111010010 #
b1010111110101110010011110101111 "
b11101001000001001011110111111010 *
#1088000
b10100111010001001011100001001110 %
b10100111010001001011100001001110 (
b10111011101100001000110101110110 !
b10111011101100001000110101110110 )
b10100011010111101010100101000 $
b10100011010111101010100101000 '
b10100111010001001011100001001110 #
b10100011010111101010100101000 "
b100111010001001011011011011000 *
#1099000
b11110000100010011110100011100001 %
b11110000100010011110100011100001 (
b10110101100010100111000101101 !
b10110101100010100111000101101 )
b100110001001110110010101001100 $
b100110001001110110010101001100 '
b11110000100010011110100011100001 #
b100110001001110110010101001100 "
b1110000100010011110011001100110 *
#1110000
b1110001010110011111101111100010 %
b1110001010110011111101111100010 (
b11110110111000001010100111101101 !
b11110110111000001010100111101101 )
b10000101100001101010111000001011 $
b10000101100001101010111000001011 '
b1110001010110011111101111100010 #
b10000101100001101010111000001011 "
b11110001010110011111100000100100 *
#1121000
b11011100001010100110010010111000 %
b11011100001010100110010010111000 (
b101010111100111111000001010101 !
b101010111100111111000001010101 )
b1001110110010011000101110011101 $
b1001110110010011000101110011101 '
b11011100001010100110010010111000 #
b1001110110010011000101110011101 "
b1011100001010100110001110010010 *
#1132000
b11111110111000000100111011111101 %
b11111110111000000100111011111101 (
b11010111011100100111010110101110 !
b11010111011100100111010110101110 )
b11011000100100100010011010110001 $
b11011000100100100010011010110001 '
b11111110111000000100111011111101 #
b11011000100100100010011010110001 "
b1111110111000000100110000110000 *
#1143000
b10100101100010110110001001001011 %
b10100101100010110110001001001011 (
b1101111001101101101011011011110 !
b1101111001101101101011011011110 )
b11001001101010110111010010010011 $
b11001001101010110111010010010011 '
b10100101100010110110001001001011 #
b11001001101010110111010010010011 "
b100101100010110110000101111110 *
#1154000
b1101100100111100000100011011 %
b1101100100111100000100011011 (
b10011101000100011101000100111 !
b10011101000100011101000100111 )
b110000011100111100100001100 $
b110000011100111100100001100 '
b1101100100111100000100011011 #
b110000011100111100100001100 "
b10001101100100111011111011111100 *
#1165000
b1111101010100101100111111111010 %
b1111101010100101100111111111010 (
b10011100010100011000110100110111 !
b10011100010100011000110100110111 )
b11110111111101011110100111101 $
b11110111111101011110100111101 '
b1111101010100101100111111111010 #
b11110111111101011110100111101 "
b11111101010100101100110000101010 *
