verification_non_fwd/tb.vcd
$date
	Fri Dec  6 13:11:19 2024
$end
$version
	Icarus Verilog
$end
$timescale
	1ps
$end
$scope module tb $end
$var wire 32 ! o_pc_debug [31:0] $end
$var wire 32 " o_io_ledr [31:0] $end
$var wire 32 # o_io_ledg [31:0] $end
$var wire 32 $ o_io_lcd [31:0] $end
$var wire 7 % o_io_hex7 [6:0] $end
$var wire 7 & o_io_hex6 [6:0] $end
$var wire 7 ' o_io_hex5 [6:0] $end
$var wire 7 ( o_io_hex4 [6:0] $end
$var wire 7 ) o_io_hex3 [6:0] $end
$var wire 7 * o_io_hex2 [6:0] $end
$var wire 7 + o_io_hex1 [6:0] $end
$var wire 7 , o_io_hex0 [6:0] $end
$var wire 1 - o_insn_vld $end
$var reg 1 . i_clk $end
$var reg 4 / i_io_btn [3:0] $end
$var reg 32 0 i_io_sw [31:0] $end
$var reg 1 1 i_rst_n $end
$scope module log $end
$var wire 1 . clk_i $end
$var wire 32 2 data [31:0] $end
$var wire 32 3 instr [31:0] $end
$var wire 1 4 is_branch $end
$var wire 1 5 is_jump $end
$var wire 1 6 is_load $end
$var wire 1 7 is_store $end
$var wire 32 8 l_data [31:0] $end
$var wire 32 9 pc [31:0] $end
$var wire 32 : s_data [31:0] $end
$var wire 5 ; reg_num [4:0] $end
$var wire 3 < mem_type [2:0] $end
$var wire 3 = ls_size [2:0] $end
$var wire 12 > ls_addr [11:0] $end
$var integer 32 ? fd [31:0] $end
$upscope $end
$scope module non_fwd_inst $end
$var wire 1 . i_clk $end
$var wire 4 @ i_io_btn [3:0] $end
$var wire 32 A i_io_sw [31:0] $end
$var wire 1 1 i_rstn $end
$var wire 1 - o_insn_vld $end
$var wire 1 B pc_wren $end
$var wire 32 C o_io_ledr [31:0] $end
$var wire 32 D o_io_ledg [31:0] $end
$var wire 32 E o_io_lcd [31:0] $end
$var wire 7 F o_io_hex7 [6:0] $end
$var wire 7 G o_io_hex6 [6:0] $end
$var wire 7 H o_io_hex5 [6:0] $end
$var wire 7 I o_io_hex4 [6:0] $end
$var wire 7 J o_io_hex3 [6:0] $end
$var wire 7 K o_io_hex2 [6:0] $end
$var wire 7 L o_io_hex1 [6:0] $end
$var wire 7 M o_io_hex0 [6:0] $end
$var wire 32 N WB_rd_data [31:0] $end
$var wire 32 O MEM_lsu_rdata [31:0] $end
$var wire 32 P IF_pcplus4 [31:0] $end
$var wire 32 Q IF_pcnext [31:0] $end
$var wire 32 R IF_instr [31:0] $end
$var wire 1 S IFIDreg_wren $end
$var wire 1 T IFIDreg_clr $end
$var wire 5 U IFID_rs2 [4:0] $end
$var wire 5 V IFID_rs1 [4:0] $end
$var wire 5 W IFID_rd [4:0] $end
$var wire 3 X IFID_func3 [2:0] $end
$var wire 1 Y ID_wb_sel $end
$var wire 32 Z ID_rs2_data [31:0] $end
$var wire 32 [ ID_rs1_data [31:0] $end
$var wire 1 \ ID_rd_wren $end
$var wire 2 ] ID_opb_sel [1:0] $end
$var wire 1 ^ ID_opa_sel $end
$var wire 1 _ ID_mem_wren $end
$var wire 1 ` ID_mem_rden $end
$var wire 2 a ID_is_uncbr [1:0] $end
$var wire 1 b ID_is_br $end
$var wire 1 c ID_insn_vld $end
$var wire 32 d ID_imm [31:0] $end
$var wire 4 e ID_alu_op [3:0] $end
$var wire 1 f IDEXreg_clr $end
$var wire 1 g EX_pcsel $end
$var wire 32 h EX_br_base [31:0] $end
$var wire 32 i EX_br_addr [31:0] $end
$var wire 32 j EX_alu_opb [31:0] $end
$var wire 32 k EX_alu_opa [31:0] $end
$var wire 32 l EX_alu_data [31:0] $end
$var wire 1 m EXMEMreg_clr $end
$var reg 32 n EXMEM_alu_data [31:0] $end
$var reg 32 o EXMEM_br_addr [31:0] $end
$var reg 3 p EXMEM_func3 [2:0] $end
$var reg 1 q EXMEM_insn_vld $end
$var reg 32 r EXMEM_instr [31:0] $end
$var reg 1 s EXMEM_is_br $end
$var reg 2 t EXMEM_is_uncbr [1:0] $end
$var reg 1 u EXMEM_mem_rden $end
$var reg 1 v EXMEM_mem_wren $end
$var reg 32 w EXMEM_pc [31:0] $end
$var reg 1 x EXMEM_pcsel $end
$var reg 5 y EXMEM_rd [4:0] $end
$var reg 1 z EXMEM_rd_wren $end
$var reg 32 { EXMEM_rs2_data [31:0] $end
$var reg 1 | EXMEM_wb_sel $end
$var reg 4 } IDEX_alu_op [3:0] $end
$var reg 3 ~ IDEX_func3 [2:0] $end
$var reg 32 !" IDEX_imm [31:0] $end
$var reg 1 "" IDEX_insn_vld $end
$var reg 32 #" IDEX_instr [31:0] $end
$var reg 1 $" IDEX_is_br $end
$var reg 2 %" IDEX_is_uncbr [1:0] $end
$var reg 1 &" IDEX_mem_rden $end
$var reg 1 '" IDEX_mem_wren $end
$var reg 1 (" IDEX_opa_sel $end
$var reg 2 )" IDEX_opb_sel [1:0] $end
$var reg 32 *" IDEX_pc [31:0] $end
$var reg 32 +" IDEX_pcplus4 [31:0] $end
$var reg 5 ," IDEX_rd [4:0] $end
$var reg 1 -" IDEX_rd_wren $end
$var reg 32 ." IDEX_rs1_data [31:0] $end
$var reg 32 /" IDEX_rs2_data [31:0] $end
$var reg 1 0" IDEX_wb_sel $end
$var reg 32 1" IFID_instr [31:0] $end
$var reg 32 2" IFID_pc [31:0] $end
$var reg 32 3" IFID_pcplus4 [31:0] $end
$var reg 32 4" IF_pc [31:0] $end
$var reg 32 5" MEMWB_alu_data [31:0] $end
$var reg 1 6" MEMWB_insn_vld $end
$var reg 32 7" MEMWB_instr [31:0] $end
$var reg 32 8" MEMWB_lsu_rdata [31:0] $end
$var reg 32 9" MEMWB_pc [31:0] $end
$var reg 5 :" MEMWB_rd [4:0] $end
$var reg 1 ;" MEMWB_rd_wren $end
$var reg 32 <" MEMWB_s_data [31:0] $end
$var reg 1 =" MEMWB_wb_sel $end
$var reg 32 >" o_pc_debug [31:0] $end
$scope module inst_alu $end
$var wire 4 ?" i_alu_op [3:0] $end
$var wire 32 @" i_operand_a [31:0] $end
$var wire 32 A" i_operand_b [31:0] $end
$var wire 32 B" o_alu_data [31:0] $end
$var wire 1 C" overflow $end
$var wire 1 D" signed_lt $end
$var wire 1 E" unsigned_lt $end
$var wire 32 F" temp_srl [31:0] $end
$var wire 32 G" temp_sra [31:0] $end
$var wire 32 H" temp_sll [31:0] $end
$var wire 32 I" temp [31:0] $end
$var wire 1 J" carry $end
$var reg 32 K" alu_temp [31:0] $end
$scope module u1 $end
$var wire 32 L" i_operand_a [31:0] $end
$var wire 5 M" i_operand_b [4:0] $end
$var wire 32 N" o_sll_data [31:0] $end
$var reg 32 O" temp1 [31:0] $end
$var reg 32 P" temp2 [31:0] $end
$var reg 32 Q" temp3 [31:0] $end
$var reg 32 R" temp4 [31:0] $end
$var reg 32 S" temp5 [31:0] $end
$upscope $end
$scope module u2 $end
$var wire 32 T" i_operand_a [31:0] $end
$var wire 5 U" i_operand_b [4:0] $end
$var wire 32 V" o_srl_data [31:0] $end
$var reg 32 W" temp1 [31:0] $end
$var reg 32 X" temp2 [31:0] $end
$var reg 32 Y" temp3 [31:0] $end
$var reg 32 Z" temp4 [31:0] $end
$var reg 32 [" temp5 [31:0] $end
$upscope $end
$scope module u3 $end
$var wire 32 \" i_operand_a [31:0] $end
$var wire 5 ]" i_operand_b [4:0] $end
$var wire 32 ^" o_sra_data [31:0] $end
$var reg 32 _" temp1 [31:0] $end
$var reg 32 `" temp2 [31:0] $end
$var reg 32 a" temp3 [31:0] $end
$var reg 32 b" temp4 [31:0] $end
$var reg 32 c" temp5 [31:0] $end
$upscope $end
$upscope $end
$scope module inst_bru $end
$var wire 1 d" br_less $end
$var wire 1 e" br_less_uns $end
$var wire 3 f" func3 [2:0] $end
$var wire 1 $" is_br $end
$var wire 1 g" is_uncbr $end
$var wire 1 h" overflow $end
$var wire 32 i" rs1_data [31:0] $end
$var wire 32 j" rs2_data [31:0] $end
$var wire 32 k" sub [31:0] $end
$var wire 1 l" carry $end
$var wire 1 m" br_equal $end
$var reg 1 g pc_sel $end
$upscope $end
$scope module inst_ctrl_unit $end
$var wire 32 n" instr [31:0] $end
$var wire 7 o" func7 [6:0] $end
$var wire 3 p" func3 [2:0] $end
$var parameter 7 q" B_type $end
$var parameter 7 r" I_type_IMM $end
$var parameter 7 s" I_type_JALR $end
$var parameter 7 t" I_type_LD $end
$var parameter 7 u" J_type $end
$var parameter 7 v" R_type $end
$var parameter 7 w" S_type $end
$var parameter 7 x" U_type_AUIPC $end
$var parameter 7 y" U_type_LUI $end
$var reg 4 z" alu_op [3:0] $end
$var reg 1 c insn_vld $end
$var reg 1 b is_br $end
$var reg 2 {" is_uncbr [1:0] $end
$var reg 1 ` mem_rden $end
$var reg 1 _ mem_wren $end
$var reg 1 ^ op_a_sel $end
$var reg 2 |" op_b_sel [1:0] $end
$var reg 1 \ rd_wren $end
$var reg 1 Y wb_sel $end
$upscope $end
$scope module inst_hdu $end
$var wire 1 s EXMEM_is_br $end
$var wire 1 }" EXMEM_is_uncbr $end
$var wire 1 x EXMEM_pcsel $end
$var wire 5 ~" EXMEM_rd [4:0] $end
$var wire 1 z EXMEM_rdwren $end
$var wire 5 !# IDEX_rd [4:0] $end
$var wire 1 -" IDEX_rdwren $end
$var wire 5 "# IFID_rs1 [4:0] $end
$var wire 5 ## IFID_rs2 [4:0] $end
$var reg 1 m EXMEM_clear $end
$var reg 1 f IDEX_clear $end
$var reg 1 T IFID_clear $end
$var reg 1 S IFID_wren $end
$var reg 1 B pc_wren $end
$upscope $end
$scope module inst_imem $end
$var wire 32 $# i_addr [31:0] $end
$var wire 32 %# o_data [31:0] $end
$upscope $end
$scope module inst_immgen $end
$var wire 32 &# instruction_i [31:0] $end
$var parameter 5 '# B_type $end
$var parameter 5 (# I_type_IMM $end
$var parameter 5 )# I_type_JALR $end
$var parameter 5 *# I_type_LD $end
$var parameter 5 +# J_type $end
$var parameter 5 ,# R_type $end
$var parameter 5 -# S_type $end
$var parameter 5 .# U_type $end
$var reg 32 /# immediate_o [31:0] $end
$upscope $end
$scope module inst_lsu $end
$var wire 1 . i_clk $end
$var wire 3 0# i_func3 [2:0] $end
$var wire 32 1# i_io_btn [31:0] $end
$var wire 32 2# i_io_sw [31:0] $end
$var wire 32 3# i_lsu_addr [31:0] $end
$var wire 1 v i_lsu_wren $end
$var wire 1 1 i_rst_n $end
$var wire 32 4# i_st_data [31:0] $end
$var wire 32 5# output_mem_out [31:0] $end
$var wire 6 6# output_mem_addr [5:0] $end
$var wire 32 7# o_io_ledr [31:0] $end
$var wire 32 8# o_io_ledg [31:0] $end
$var wire 32 9# o_io_lcd [31:0] $end
$var wire 7 :# o_io_hex7 [6:0] $end
$var wire 7 ;# o_io_hex6 [6:0] $end
$var wire 7 <# o_io_hex5 [6:0] $end
$var wire 7 =# o_io_hex4 [6:0] $end
$var wire 7 ># o_io_hex3 [6:0] $end
$var wire 7 ?# o_io_hex2 [6:0] $end
$var wire 7 @# o_io_hex1 [6:0] $end
$var wire 7 A# o_io_hex0 [6:0] $end
$var wire 32 B# input_mem_out [31:0] $end
$var wire 5 C# input_mem_addr [4:0] $end
$var wire 2 D# i_s_length [1:0] $end
$var wire 1 E# i_l_unsigned $end
$var wire 2 F# i_l_length [1:0] $end
$var wire 32 G# data_mem_out [31:0] $end
$var wire 13 H# data_mem_addr [12:0] $end
$var reg 3 I# cs [2:0] $end
$var reg 32 J# ld_temp_data [31:0] $end
$var reg 32 K# o_ld_data [31:0] $end
$scope begin $ivl_for_loop0 $end
$var integer 32 L# i [31:0] $end
$upscope $end
$scope begin $ivl_for_loop1 $end
$var integer 32 M# i [31:0] $end
$upscope $end
$scope begin $ivl_for_loop2 $end
$var integer 32 N# i [31:0] $end
$upscope $end
$upscope $end
$scope module inst_regfile $end
$var wire 1 . clk_i $end
$var wire 5 O# rd_addr [4:0] $end
$var wire 32 P# rd_data [31:0] $end
$var wire 1 ;" rd_wren $end
$var wire 5 Q# rs1_addr [4:0] $end
$var wire 5 R# rs2_addr [4:0] $end
$var wire 1 1 rst_ni $end
$var wire 32 S# rs2_data [31:0] $end
$var wire 32 T# rs1_data [31:0] $end
$scope begin $ivl_for_loop3 $end
$var integer 32 U# i [31:0] $end
$upscope $end
$upscope $end
$upscope $end
$upscope $end
$enddefinitions $end
$comment Show the parameter values. $end
$dumpall
b1101 .#
b1000 -#
b1100 ,#
b11011 +#
b0 *#
b11001 )#
b100 (#
b11000 '#
b110111 y"
b10111 x"
b100011 w"
b110011 v"
b1101111 u"
b11 t"
b1100111 s"
b10011 r"
b1100011 q"
$end
#0
$dumpvars
bx U#
bx T#
bx S#
bx R#
bx Q#
bx P#
bx O#
bx N#
bx M#
bx L#
bx K#
bx J#
bx I#
bx H#
bx G#
bx F#
xE#
bx D#
bx C#
bx B#
bx A#
bx @#
bx ?#
bx >#
bx =#
bx <#
bx ;#
bx :#
bx 9#
bx 8#
bx 7#
bx 6#
bx 5#
bx 4#
bx 3#
bx 2#
b0xxxx 1#
bx 0#
bx /#
bx &#
bx %#
bx $#
bx ##
bx "#
bx !#
bx ~"
x}"
bx |"
bx {"
bx z"
bx p"
bx o"
bx n"
xm"
xl"
bx k"
bx j"
bx i"
xh"
xg"
bx f"
xe"
xd"
bx c"
bx b"
bx a"
bx `"
bx _"
bx ^"
bx ]"
bx \"
bx ["
bx Z"
bx Y"
bx X"
bx W"
bx V"
bx U"
bx T"
bx S"
bx R"
bx Q"
bx P"
bx O"
bx N"
bx M"
bx L"
bx K"
xJ"
bx I"
bx H"
bx G"
bx F"
xE"
xD"
xC"
bx B"
bx A"
bx @"
bx ?"
bx >"
x="
bx <"
x;"
bx :"
bx 9"
bx 8"
bx 7"
x6"
bx 5"
bx 4"
bx 3"
bx 2"
bx 1"
x0"
bx /"
bx ."
x-"
bx ,"
bx +"
bx *"
bx )"
x("
x'"
x&"
bx %"
x$"
bx #"
x""
bx !"
bx ~
bx }
x|
bx {
xz
bx y
xx
bx w
xv
xu
bx t
xs
bx r
xq
bx p
bx o
bx n
xm
bx l
bx k
bx j
bx i
bx h
0g
xf
bx e
bx d
xc
xb
bx a
x`
x_
x^
bx ]
x\
bx [
bx Z
xY
bx X
bx W
bx V
bx U
xT
xS
bx R
bx Q
bx P
bx O
bx N
bx M
bx L
bx K
bx J
bx I
bx H
bx G
bx F
bx E
bx D
bx C
xB
bx A
bx @
b10000000000000000000000000000011 ?
bx >
bx =
bx <
bx ;
bx :
bx 9
bx 8
x7
x6
x5
x4
bx 3
bx 2
x1
bx 0
bx /
0.
x-
bx ,
bx +
bx *
bx )
bx (
bx '
bx &
bx %
bx $
bx #
bx "
bx !
$end
#5000
0D"
04
1m"
0d"
06
b0 I"
0E"
0J"
0C"
b0 [
b0 T#
b0 Z
b0 S#
b0 k"
0e"
0l"
0h"
b0 G#
b0 B#
b0 5#
07
b0 =
05
b0 M"
b0 U"
b0 ]"
b0 H"
b0 N"
b0 S"
b0 R"
b0 Q"
b0 P"
b0 O"
b0 F"
b0 V"
b0 ["
b0 Z"
b0 Y"
b0 X"
b0 W"
b0 G"
b0 ^"
b0 c"
b0 b"
b0 a"
b0 `"
b0 _"
b0 O
b0 K#
b0 J#
b0 <
b0 $
b0 E
b0 9#
b0 %
b0 F
b0 :#
b0 &
b0 G
b0 ;#
b0 '
b0 H
b0 <#
b0 (
b0 I
b0 =#
b0 )
b0 J
b0 >#
b0 *
b0 K
b0 ?#
b0 +
b0 L
b0 @#
b0 ,
b0 M
b0 A#
b0 #
b0 D
b0 8#
b0 "
b0 C
b0 7#
b111100000000000010010011 R
b111100000000000010010011 %#
b0 V
b0 "#
b0 Q#
b0 U
b0 ##
b0 R#
b0 W
b0 X
0c
b0 e
b0 z"
b0 a
b0 {"
0b
0Y
b0 ]
b0 |"
0^
0`
0_
0\
b0 o"
b0 p"
b0 d
b0 /#
b0 i
b0 h
b0 l
b0 B"
b0 K"
b0 j
b0 A"
b0 k
b0 @"
b0 L"
b0 T"
b0 \"
0g"
b0 D#
b0 F#
0E#
b100 Q
b0 I#
b0 H#
b0 C#
b0 6#
0}"
1S
1B
0m
0f
0T
b0 ;
b0 >
b0 2
b0 N
b0 P#
b100 P
b0 4"
b0 $#
b0 1"
b0 n"
b0 &#
b0 3"
b0 2"
b0 #"
b0 ,"
b0 !#
b0 ~
b0 f"
b0 !"
b0 /"
b0 j"
b0 ."
b0 i"
b0 +"
b0 *"
00"
0&"
0'"
b0 }
b0 ?"
b0 )"
0("
0-"
b0 %"
0$"
0""
b0 r
b0 w
b0 y
b0 ~"
b0 p
b0 0#
0x
b0 o
b0 {
b0 4#
b0 n
b0 3#
0|
0u
0v
0z
b0 t
0s
0q
b0 :
b0 <"
b0 3
b0 7"
b0 9
b0 9"
b0 :"
b0 O#
b0 8
b0 8"
b0 5"
0="
0;"
0-
06"
b100000 N#
b1000000 M#
b10000000000000 L#
b100000 U#
01
1.
#10000
0.
#15000
b1111 U
b1111 ##
b1111 R#
b1 W
1c
b1 ]
b1 |"
1\
b1111 d
b1111 /#
b1000 Q
b11111111000100000000000100010011 R
b11111111000100000000000100010011 %#
bx B#
b111100000000000010010011 1"
b111100000000000010010011 n"
b111100000000000010010011 &#
b100 3"
b1000 P
b100 4"
b100 $#
1.
11
#20000
0.
#25000
1D"
b11111111111111111111111111110001 I"
1E"
1J"
b1111 l
b1111 B"
b1111 K"
b1111 M"
b1111 U"
b1111 ]"
b1100 Q
b1000000000000000110010011 R
b1000000000000000110010011 %#
b10001 U
b10001 ##
b10001 R#
b10 W
b1111111 o"
b11111111111111111111111111110001 d
b11111111111111111111111111110001 /#
b1111 j
b1111 A"
b1100 P
b1000 4"
b1000 $#
b11111111000100000000000100010011 1"
b11111111000100000000000100010011 n"
b11111111000100000000000100010011 &#
b1000 3"
b100 2"
b111100000000000010010011 #"
b1 ,"
b1 !#
b1111 i
b1111 !"
b100 +"
b1 )"
1-"
1""
1.
#30000
0.
#35000
0D"
b1111 I"
0C"
b0xxxx00000000 B#
b11111111111111111111111111110001 l
b11111111111111111111111111110001 B"
b11111111111111111111111111110001 K"
b10001 M"
b10001 U"
b10001 ]"
b11111111111111111111111111110001 j
b11111111111111111111111111110001 A"
b1111 H#
b1111 C#
b1111 6#
b100 h
b10000 U
b10000 ##
b10000 R#
b11 W
b0 o"
b10000 d
b10000 /#
b10000 Q
b1111111100000000001000010011 R
b1111111100000000001000010011 %#
b111100000000000010010011 r
b1 y
b1 ~"
b1111 o
b1111 n
b1111 3#
1z
1q
b11111111000100000000000100010011 #"
b10 ,"
b10 !#
b11111111111111111111111111110101 i
b11111111111111111111111111110001 !"
b1000 +"
b100 *"
b1000000000000000110010011 1"
b1000000000000000110010011 n"
b1000000000000000110010011 &#
b1100 3"
b1000 2"
b10000 P
b1100 4"
b1100 $#
1.
#40000
0.
#45000
1D"
b11111111111111111111111111110000 I"
b10000 l
b10000 B"
b10000 K"
b10000 M"
b10000 U"
b10000 ]"
b0 B#
b10000 j
b10000 A"
b10100 Q
b10000000000000000000001010110111 R
b10000000000000000000001010110111 %#
b11111 U
b11111 ##
b11111 R#
b100 W
b111 o"
b11111111 d
b11111111 /#
b1000 h
b1111111110001 H#
b10001 C#
b110001 6#
b1 ;
b1111 2
b1111 N
b1111 P#
b1111 >
b10100 P
b10000 4"
b10000 $#
b1111111100000000001000010011 1"
b1111111100000000001000010011 n"
b1111111100000000001000010011 &#
b10000 3"
b1100 2"
b1000000000000000110010011 #"
b11 ,"
b11 !#
b11000 i
b10000 !"
b1100 +"
b1000 *"
b11111111000100000000000100010011 r
b100 w
b10 y
b10 ~"
b11111111111111111111111111110101 o
b11111111111111111111111111110001 n
b11111111111111111111111111110001 3#
b111100000000000010010011 3
b111100000000000010010011 7"
b1 :"
b1 O#
b1111 5"
1;"
1-
16"
1.
#50000
0.
#55000
b11111111111111111111111100000001 I"
b0xxxx B#
b11111111 l
b11111111 B"
b11111111 K"
b11111 M"
b11111 U"
b11111 ]"
b11111111 j
b11111111 A"
b10 ;
b11111111111111111111111111110001 2
b11111111111111111111111111110001 N
b11111111111111111111111111110001 P#
b111111110001 >
b10000 H#
b10000 C#
b10000 6#
b1100 h
b0 U
b0 ##
b0 R#
b101 W
b1010 e
b1010 z"
b1000000 o"
b10000000000000000000000000000000 d
b10000000000000000000000000000000 /#
b11000 Q
b11111111111100101000001010010011 R
b11111111111100101000001010010011 %#
b11111111000100000000000100010011 3
b11111111000100000000000100010011 7"
b100 9
b100 9"
b10 :"
b10 O#
b11111111111111111111111111110001 5"
b1000000000000000110010011 r
b1000 w
b11 y
b11 ~"
b11000 o
b10000 n
b10000 3#
b1111111100000000001000010011 #"
b100 ,"
b100 !#
b100001011 i
b11111111 !"
b10000 +"
b1100 *"
b10000000000000000000001010110111 1"
b10000000000000000000001010110111 n"
b10000000000000000000001010110111 &#
b10100 3"
b10000 2"
b11000 P
b10100 4"
b10100 $#
1.
#60000
0.
#65000
0D"
b10000000000000000000000000000000 I"
1C"
b10000000000000000000000000000000 l
b10000000000000000000000000000000 B"
b10000000000000000000000000000000 K"
b0 M"
b0 U"
b0 ]"
bx00000000 B#
1f
0S
0B
b10000000000000000000000000000000 j
b10000000000000000000000000000000 A"
b11100 Q
b10000000000000000000001100110111 R
b10000000000000000000001100110111 %#
b101 V
b101 "#
b101 Q#
b11111 U
b11111 ##
b11111 R#
b0 e
b0 z"
b1111111 o"
b11111111111111111111111111111111 d
b11111111111111111111111111111111 /#
b10000 h
b11111111 H#
b11111 C#
b111111 6#
b11 ;
b10000 2
b10000 N
b10000 P#
b10000 >
b11100 P
b11000 4"
b11000 $#
b11111111111100101000001010010011 1"
b11111111111100101000001010010011 n"
b11111111111100101000001010010011 &#
b11000 3"
b10100 2"
b10000000000000000000001010110111 #"
b101 ,"
b101 !#
b10000000000000000000000000010000 i
b10000000000000000000000000000000 !"
b10100 +"
b10000 *"
b1010 }
b1010 ?"
b1111111100000000001000010011 r
b1100 w
b100 y
b100 ~"
b100001011 o
b11111111 n
b11111111 3#
b1000000000000000110010011 3
b1000000000000000110010011 7"
b1000 9
b1000 9"
b11 :"
b11 O#
b10000 5"
1.
#70000
0.
#75000
0D"
b0 I"
0E"
0J"
0C"
bx B#
b100 ;
b11111111 2
b11111111 N
b11111111 P#
b11111111 >
b0 H#
b0 C#
b0 6#
b0 h
b0 l
b0 B"
b0 K"
b0 j
b0 A"
b1111111100000000001000010011 3
b1111111100000000001000010011 7"
b1100 9
b1100 9"
b100 :"
b100 O#
b11111111 5"
b10000000000000000000001010110111 r
b10000 w
b101 y
b101 ~"
b10000000000000000000000000010000 o
b10000000000000000000000000000000 n
b10000000000000000000000000000000 3#
b0 #"
b0 ,"
b0 !#
b0 i
b0 !"
b0 +"
b0 *"
b0 }
b0 ?"
b0 )"
0-"
0""
1.
#80000
0.
#85000
b10000000000000000000000000000000 [
b10000000000000000000000000000000 T#
1S
1B
0f
b101 ;
b10000000000000000000000000000000 2
b10000000000000000000000000000000 N
b10000000000000000000000000000000 P#
b0 >
b0 r
b0 w
b0 y
b0 ~"
b0 o
b0 n
b0 3#
0z
0q
b10000000000000000000001010110111 3
b10000000000000000000001010110111 7"
b10000 9
b10000 9"
b101 :"
b101 O#
b10000000000000000000000000000000 5"
1.
#90000
0.
#95000
1d"
1D"
0m"
1E"
1J"
b10000000000000000000000000000001 I"
0h"
b0 [
b0 T#
b1 F"
b1 V"
b1 ["
b10000000000000000 Z"
b1000000000000000000000000 Y"
b10000000000000000000000000000 X"
b1000000000000000000000000000000 W"
b11111111111111111111111111111111 G"
b11111111111111111111111111111111 ^"
b11111111111111111111111111111111 c"
b11111111111111110000000000000000 b"
b11111111000000000000000000000000 a"
b11110000000000000000000000000000 `"
b11000000000000000000000000000000 _"
b10000000000000000000000000000000 k"
b1111111111111111111111111111111 l
b1111111111111111111111111111111 B"
b1111111111111111111111111111111 K"
b11111 M"
b11111 U"
b11111 ]"
b0 ;
b0 2
b0 N
b0 P#
b10000000000000000000000000000000 k
b10000000000000000000000000000000 @"
b10000000000000000000000000000000 L"
b10000000000000000000000000000000 T"
b10000000000000000000000000000000 \"
b10100 h
b11111111111111111111111111111111 j
b11111111111111111111111111111111 A"
b0 V
b0 "#
b0 Q#
b0 U
b0 ##
b0 R#
b110 W
b1010 e
b1010 z"
b1000000 o"
b10000000000000000000000000000000 d
b10000000000000000000000000000000 /#
b100000 Q
b1100001000001110110011 R
b1100001000001110110011 %#
b0 3
b0 7"
b0 9
b0 9"
b0 :"
b0 O#
b0 5"
0;"
0-
06"
b11111111111100101000001010010011 #"
b101 ,"
b101 !#
b10011 i
b11111111111111111111111111111111 !"
b10000000000000000000000000000000 ."
b10000000000000000000000000000000 i"
b11000 +"
b10100 *"
b1 )"
1-"
1""
b10000000000000000000001100110111 1"
b10000000000000000000001100110111 n"
b10000000000000000000001100110111 &#
b11100 3"
b11000 2"
b100000 P
b11100 4"
b11100 $#
1.
#100000
0.
#105000
0D"
1C"
1m"
0d"
b1111 [
b1111 T#
b10000 Z
b10000 S#
b0 M"
b0 U"
b0 ]"
b10000000000000000000000000000000 I"
bx00000000 B#
b10000000000000000000000000000000 j
b10000000000000000000000000000000 A"
b0 F"
b0 V"
b0 ["
b0 Z"
b0 Y"
b0 X"
b0 W"
b0 G"
b0 ^"
b0 c"
b0 b"
b0 a"
b0 `"
b0 _"
b0 k"
b100100 Q
b10000010000010000110011 R
b10000010000010000110011 %#
b1 V
b1 "#
b1 Q#
b11 U
b11 ##
b11 R#
b111 W
b0 e
b0 z"
b0 ]
b0 |"
b0 o"
b0 d
b0 /#
b0 k
b0 @"
b0 L"
b0 T"
b0 \"
b11000 h
b10000000000000000000000000000000 l
b10000000000000000000000000000000 B"
b10000000000000000000000000000000 K"
b1111111111111 H#
b11111 C#
b111111 6#
b100100 P
b100000 4"
b100000 $#
b1100001000001110110011 1"
b1100001000001110110011 n"
b1100001000001110110011 &#
b100000 3"
b11100 2"
b10000000000000000000001100110111 #"
b110 ,"
b110 !#
b10000000000000000000000000011000 i
b10000000000000000000000000000000 !"
b0 ."
b0 i"
b11100 +"
b11000 *"
b1010 }
b1010 ?"
b11111111111100101000001010010011 r
b10100 w
b101 y
b101 ~"
b10011 o
b1111111111111111111111111111111 n
b1111111111111111111111111111111 3#
1z
1q
1.
#110000
0.
#115000
1d"
1D"
0m"
0C"
bx B#
1e"
1l"
b11111111111111111111111111111111 I"
b11111111111111111111111111110001 [
b11111111111111111111111111110001 T#
b11111111 Z
b11111111 S#
b11110000000000000000 H"
b11110000000000000000 N"
b11110000000000000000 S"
b1111 R"
b1111 Q"
b1111 P"
b1111 O"
b1111 Z"
b1111 Y"
b1111 X"
b1111 W"
b1111 b"
b1111 a"
b1111 `"
b1111 _"
b11111111111111111111111111111111 k"
b10000 M"
b10000 U"
b10000 ]"
b101 ;
b1111111111111111111111111111111 2
b1111111111111111111111111111111 N
b1111111111111111111111111111111 P#
b111111111111 >
b0 H#
b0 C#
b0 6#
b1111 k
b1111 @"
b1111 L"
b1111 T"
b1111 \"
b11100 h
b11111 l
b11111 B"
b11111 K"
b10000 j
b10000 A"
b10 V
b10 "#
b10 Q#
b100 U
b100 ##
b100 R#
b1000 W
b101000 Q
b11000101000010010110011 R
b11000101000010010110011 %#
b11111111111100101000001010010011 3
b11111111111100101000001010010011 7"
b10100 9
b10100 9"
b101 :"
b101 O#
b1111111111111111111111111111111 5"
1;"
1-
16"
b10000000000000000000001100110111 r
b11000 w
b110 y
b110 ~"
b10000000000000000000000000011000 o
b10000000000000000000000000000000 n
b10000000000000000000000000000000 3#
b1100001000001110110011 #"
b111 ,"
b111 !#
b11100 i
b0 !"
b10000 /"
b10000 j"
b1111 ."
b1111 i"
b100000 +"
b11100 *"
b0 }
b0 ?"
b0 )"
b10000010000010000110011 1"
b10000010000010000110011 n"
b10000010000010000110011 &#
b100100 3"
b100000 2"
b101000 P
b100100 4"
b100100 $#
1.
#120000
0.
